%YAML 1.1
%TAG !u! tag:unity3d.com,2011:
--- !u!74 &7400000
AnimationClip:
  m_ObjectHideFlags: 0
  m_PrefabParentObject: {fileID: 0}
  m_PrefabInternal: {fileID: 0}
  m_Name: anim_baseDommage
  serializedVersion: 6
  m_Legacy: 0
  m_Compressed: 0
  m_UseHighQualityCurve: 1
  m_RotationCurves: []
  m_CompressedRotationCurves: []
  m_EulerCurves: []
  m_PositionCurves: []
  m_ScaleCurves: []
  m_FloatCurves:
  - curve:
      serializedVersion: 2
      m_Curve:
      - time: 0
        value: 0.20392157
        inSlope: Infinity
        outSlope: Infinity
        tangentMode: 31
      - time: 1
        value: 0.20392157
        inSlope: 2.277942
        outSlope: 2.277942
        tangentMode: 10
      - time: 1.1666666
        value: 0.9632353
        inSlope: 0
        outSlope: 0
        tangentMode: 0
      - time: 1.5333333
        value: 0.9632353
        inSlope: 0
        outSlope: 0
        tangentMode: 0
      - time: 1.7
        value: 0.20392157
        inSlope: -4.5558805
        outSlope: -4.5558805
        tangentMode: 10
      m_PreInfinity: 2
      m_PostInfinity: 2
      m_RotationOrder: 4
    attribute: m_Color.r
    path: BaseIcon
    classID: 212
    script: {fileID: 0}
  - curve:
      serializedVersion: 2
      m_Curve:
      - time: 0
        value: 0.60784316
        inSlope: Infinity
        outSlope: Infinity
        tangentMode: 31
      - time: 1
        value: 0.60784316
        inSlope: -1.271086
        outSlope: -1.271086
        tangentMode: 10
      - time: 1.1666666
        value: 0.18414794
        inSlope: 0
        outSlope: 0
        tangentMode: 0
      - time: 1.5333333
        value: 0.18414794
        inSlope: 0
        outSlope: 0
        tangentMode: 0
      - time: 1.7
        value: 0.60784316
        inSlope: 2.54217
        outSlope: 2.54217
        tangentMode: 10
      m_PreInfinity: 2
      m_PostInfinity: 2
      m_RotationOrder: 4
    attribute: m_Color.g
    path: BaseIcon
    classID: 212
    script: {fileID: 0}
  - curve:
      serializedVersion: 2
      m_Curve:
      - time: 0
        value: 0.9843137
        inSlope: Infinity
        outSlope: Infinity
        tangentMode: 31
      - time: 1
        value: 0.9843137
        inSlope: -2.400498
        outSlope: -2.400498
        tangentMode: 10
      - time: 1.1666666
        value: 0.18414794
        inSlope: 0
        outSlope: 0
        tangentMode: 0
      - time: 1.5333333
        value: 0.18414794
        inSlope: 0
        outSlope: 0
        tangentMode: 0
      - time: 1.7
        value: 0.9843137
        inSlope: 4.8009925
        outSlope: 4.8009925
        tangentMode: 10
      m_PreInfinity: 2
      m_PostInfinity: 2
      m_RotationOrder: 4
    attribute: m_Color.b
    path: BaseIcon
    classID: 212
    script: {fileID: 0}
  - curve:
      serializedVersion: 2
      m_Curve:
      - time: 0
        value: 0
        inSlope: Infinity
        outSlope: Infinity
        tangentMode: 31
      - time: 1
        value: 0
        inSlope: 2.388236
        outSlope: 2.388236
        tangentMode: 10
      - time: 1.1666666
        value: 0.7960785
        inSlope: 0
        outSlope: 0
        tangentMode: 0
      - time: 1.5333333
        value: 0
        inSlope: -2.171123
        outSlope: -2.171123
        tangentMode: 10
      m_PreInfinity: 2
      m_PostInfinity: 2
      m_RotationOrder: 4
    attribute: m_Color.r
    path: RadarPanel/RadarBorder/RadarGlow
    classID: 114
    script: {fileID: -765806418, guid: f5f67c52d1564df4a8936ccd202a3bd8, type: 3}
  - curve:
      serializedVersion: 2
      m_Curve:
      - time: 0
        value: 0.7960785
        inSlope: Infinity
        outSlope: Infinity
        tangentMode: 31
      - time: 1
        value: 0.7960785
        inSlope: -2.388236
        outSlope: -2.388236
        tangentMode: 10
      - time: 1.1666666
        value: 0
        inSlope: 0
        outSlope: 0
        tangentMode: 0
      - time: 1.5333333
        value: 0.7960785
        inSlope: 2.171123
        outSlope: 2.171123
        tangentMode: 10
      m_PreInfinity: 2
      m_PostInfinity: 2
      m_RotationOrder: 4
    attribute: m_Color.g
    path: RadarPanel/RadarBorder/RadarGlow
    classID: 114
    script: {fileID: -765806418, guid: f5f67c52d1564df4a8936ccd202a3bd8, type: 3}
  - curve:
      serializedVersion: 2
      m_Curve:
      - time: 0
        value: 0.43921572
        inSlope: Infinity
        outSlope: Infinity
        tangentMode: 31
      - time: 1
        value: 0.43921572
        inSlope: -1.1694123
        outSlope: -1.1694123
        tangentMode: 10
      - time: 1.1666666
        value: 0.049411748
        inSlope: 0
        outSlope: 0
        tangentMode: 0
      - time: 1.5333333
        value: 0.43921572
        inSlope: 1.0631018
        outSlope: 1.0631018
        tangentMode: 10
      m_PreInfinity: 2
      m_PostInfinity: 2
      m_RotationOrder: 4
    attribute: m_Color.b
    path: RadarPanel/RadarBorder/RadarGlow
    classID: 114
    script: {fileID: -765806418, guid: f5f67c52d1564df4a8936ccd202a3bd8, type: 3}
  - curve:
      serializedVersion: 2
      m_Curve:
      - time: 0
        value: 0.297
        inSlope: Infinity
        outSlope: Infinity
        tangentMode: 31
      - time: 1
        value: 0.297
        inSlope: 2.1090004
        outSlope: 2.1090004
        tangentMode: 10
      - time: 1.1666666
        value: 1
        inSlope: 0
        outSlope: 0
        tangentMode: 0
      - time: 1.5333333
        value: 0.297
        inSlope: -1.9172727
        outSlope: -1.9172727
        tangentMode: 10
      m_PreInfinity: 2
      m_PostInfinity: 2
      m_RotationOrder: 4
    attribute: m_Color.a
    path: RadarPanel/RadarBorder/RadarGlow
    classID: 114
    script: {fileID: -765806418, guid: f5f67c52d1564df4a8936ccd202a3bd8, type: 3}
  m_PPtrCurves: []
  m_SampleRate: 30
  m_WrapMode: 0
  m_Bounds:
    m_Center: {x: 0, y: 0, z: 0}
    m_Extent: {x: 0, y: 0, z: 0}
  m_ClipBindingConstant:
    genericBindings:
    - path: 467501827
      attribute: 2526845255
      script: {fileID: 0}
      classID: 212
      customType: 0
      isPPtrCurve: 0
    - path: 467501827
      attribute: 4215373228
      script: {fileID: 0}
      classID: 212
      customType: 0
      isPPtrCurve: 0
    - path: 467501827
      attribute: 2334886179
      script: {fileID: 0}
      classID: 212
      customType: 0
      isPPtrCurve: 0
    - path: 1434040596
      attribute: 2526845255
      script: {fileID: -765806418, guid: f5f67c52d1564df4a8936ccd202a3bd8, type: 3}
      classID: 114
      customType: 0
      isPPtrCurve: 0
    - path: 1434040596
      attribute: 4215373228
      script: {fileID: -765806418, guid: f5f67c52d1564df4a8936ccd202a3bd8, type: 3}
      classID: 114
      customType: 0
      isPPtrCurve: 0
    - path: 1434040596
      attribute: 2334886179
      script: {fileID: -765806418, guid: f5f67c52d1564df4a8936ccd202a3bd8, type: 3}
      classID: 114
      customType: 0
      isPPtrCurve: 0
    - path: 1434040596
      attribute: 304273561
      script: {fileID: -765806418, guid: f5f67c52d1564df4a8936ccd202a3bd8, type: 3}
      classID: 114
      customType: 0
      isPPtrCurve: 0
    pptrCurveMapping: []
  m_AnimationClipSettings:
    serializedVersion: 2
    m_AdditiveReferencePoseClip: {fileID: 0}
    m_AdditiveReferencePoseTime: 0
    m_StartTime: 0
    m_StopTime: 1.7
    m_OrientationOffsetY: 0
    m_Level: 0
    m_CycleOffset: 0
    m_HasAdditiveReferencePose: 0
    m_LoopTime: 1
    m_LoopBlend: 0
    m_LoopBlendOrientation: 0
    m_LoopBlendPositionY: 0
    m_LoopBlendPositionXZ: 0
    m_KeepOriginalOrientation: 0
    m_KeepOriginalPositionY: 1
    m_KeepOriginalPositionXZ: 0
    m_HeightFromFeet: 0
    m_Mirror: 0
  m_EditorCurves:
  - curve:
      serializedVersion: 2
      m_Curve:
      - time: 0
        value: 0.20392157
        inSlope: Infinity
        outSlope: Infinity
        tangentMode: 31
      - time: 1
        value: 0.20392157
        inSlope: 2.277942
        outSlope: 2.277942
        tangentMode: 10
      - time: 1.1666666
        value: 0.9632353
        inSlope: 0
        outSlope: 0
        tangentMode: 0
      - time: 1.5333333
        value: 0.9632353
        inSlope: 0
        outSlope: 0
        tangentMode: 0
      - time: 1.7
        value: 0.20392157
        inSlope: -4.5558805
        outSlope: -4.5558805
        tangentMode: 10
      m_PreInfinity: 2
      m_PostInfinity: 2
      m_RotationOrder: 4
    attribute: m_Color.r
    path: BaseIcon
    classID: 212
    script: {fileID: 0}
  - curve:
      serializedVersion: 2
      m_Curve:
      - time: 0
        value: 0.60784316
        inSlope: Infinity
        outSlope: Infinity
        tangentMode: 31
      - time: 1
        value: 0.60784316
        inSlope: -1.271086
        outSlope: -1.271086
        tangentMode: 10
      - time: 1.1666666
        value: 0.18414794
        inSlope: 0
        outSlope: 0
        tangentMode: 0
      - time: 1.5333333
        value: 0.18414794
        inSlope: 0
        outSlope: 0
        tangentMode: 0
      - time: 1.7
        value: 0.60784316
        inSlope: 2.54217
        outSlope: 2.54217
        tangentMode: 10
      m_PreInfinity: 2
      m_PostInfinity: 2
      m_RotationOrder: 4
    attribute: m_Color.g
    path: BaseIcon
    classID: 212
    script: {fileID: 0}
  - curve:
      serializedVersion: 2
      m_Curve:
      - time: 0
        value: 0.9843137
        inSlope: Infinity
        outSlope: Infinity
        tangentMode: 31
      - time: 1
        value: 0.9843137
        inSlope: -2.400498
        outSlope: -2.400498
        tangentMode: 10
      - time: 1.1666666
        value: 0.18414794
        inSlope: 0
        outSlope: 0
        tangentMode: 0
      - time: 1.5333333
        value: 0.18414794
        inSlope: 0
        outSlope: 0
        tangentMode: 0
      - time: 1.7
        value: 0.9843137
        inSlope: 4.8009925
        outSlope: 4.8009925
        tangentMode: 10
      m_PreInfinity: 2
      m_PostInfinity: 2
      m_RotationOrder: 4
    attribute: m_Color.b
    path: BaseIcon
    classID: 212
    script: {fileID: 0}
  - curve:
      serializedVersion: 2
      m_Curve:
      - time: 0
        value: 0
        inSlope: Infinity
        outSlope: Infinity
        tangentMode: 31
      - time: 1
        value: 0
        inSlope: 2.388236
        outSlope: 2.388236
        tangentMode: 10
      - time: 1.1666666
        value: 0.7960785
        inSlope: 0
        outSlope: 0
        tangentMode: 0
      - time: 1.5333333
        value: 0
        inSlope: -2.171123
        outSlope: -2.171123
        tangentMode: 10
      m_PreInfinity: 2
      m_PostInfinity: 2
      m_RotationOrder: 4
    attribute: m_Color.r
    path: RadarPanel/RadarBorder/RadarGlow
    classID: 114
    script: {fileID: -765806418, guid: f5f67c52d1564df4a8936ccd202a3bd8, type: 3}
  - curve:
      serializedVersion: 2
      m_Curve:
      - time: 0
        value: 0.7960785
        inSlope: Infinity
        outSlope: Infinity
        tangentMode: 31
      - time: 1
        value: 0.7960785
        inSlope: -2.388236
        outSlope: -2.388236
        tangentMode: 10
      - time: 1.1666666
        value: 0
        inSlope: 0
        outSlope: 0
        tangentMode: 0
      - time: 1.5333333
        value: 0.7960785
        inSlope: 2.171123
        outSlope: 2.171123
        tangentMode: 10
      m_PreInfinity: 2
      m_PostInfinity: 2
      m_RotationOrder: 4
    attribute: m_Color.g
    path: RadarPanel/RadarBorder/RadarGlow
    classID: 114
    script: {fileID: -765806418, guid: f5f67c52d1564df4a8936ccd202a3bd8, type: 3}
  - curve:
      serializedVersion: 2
      m_Curve:
      - time: 0
        value: 0.43921572
        inSlope: Infinity
        outSlope: Infinity
        tangentMode: 31
      - time: 1
        value: 0.43921572
        inSlope: -1.1694123
        outSlope: -1.1694123
        tangentMode: 10
      - time: 1.1666666
        value: 0.049411748
        inSlope: 0
        outSlope: 0
        tangentMode: 0
      - time: 1.5333333
        value: 0.43921572
        inSlope: 1.0631018
        outSlope: 1.0631018
        tangentMode: 10
      m_PreInfinity: 2
      m_PostInfinity: 2
      m_RotationOrder: 4
    attribute: m_Color.b
    path: RadarPanel/RadarBorder/RadarGlow
    classID: 114
    script: {fileID: -765806418, guid: f5f67c52d1564df4a8936ccd202a3bd8, type: 3}
  - curve:
      serializedVersion: 2
      m_Curve:
      - time: 0
        value: 0.297
        inSlope: Infinity
        outSlope: Infinity
        tangentMode: 31
      - time: 1
        value: 0.297
        inSlope: 2.1090004
        outSlope: 2.1090004
        tangentMode: 10
      - time: 1.1666666
        value: 1
        inSlope: 0
        outSlope: 0
        tangentMode: 0
      - time: 1.5333333
        value: 0.297
        inSlope: -1.9172727
        outSlope: -1.9172727
        tangentMode: 10
      m_PreInfinity: 2
      m_PostInfinity: 2
      m_RotationOrder: 4
    attribute: m_Color.a
    path: RadarPanel/RadarBorder/RadarGlow
    classID: 114
    script: {fileID: -765806418, guid: f5f67c52d1564df4a8936ccd202a3bd8, type: 3}
  m_EulerEditorCurves: []
  m_HasGenericRootTransform: 0
  m_HasMotionFloatCurves: 0
  m_GenerateMotionCurves: 0
  m_Events: []
