%YAML 1.1
%TAG !u! tag:unity3d.com,2011:
--- !u!74 &7400000
AnimationClip:
  m_ObjectHideFlags: 0
  m_PrefabParentObject: {fileID: 0}
  m_PrefabInternal: {fileID: 0}
  m_Name: anim_targetLootLoop
  serializedVersion: 6
  m_Legacy: 0
  m_Compressed: 0
  m_UseHighQualityCurve: 1
  m_RotationCurves: []
  m_CompressedRotationCurves: []
  m_EulerCurves: []
  m_PositionCurves: []
  m_ScaleCurves: []
  m_FloatCurves:
  - curve:
      serializedVersion: 2
      m_Curve:
      - time: 0
        value: -80
        inSlope: 366.7695
        outSlope: 619.81757
        tangentMode: 1
      - time: 0.16666667
        value: -31.872292
        inSlope: 131.29315
        outSlope: 131.29315
        tangentMode: 0
      - time: 1.3666667
        value: -31.872292
        inSlope: -120.93926
        outSlope: -120.93926
        tangentMode: 0
      - time: 1.5333333
        value: -80
        inSlope: -647.30115
        outSlope: -183.3848
        tangentMode: 1
      - time: 3
        value: -80
        inSlope: Infinity
        outSlope: 0
        tangentMode: 7
      m_PreInfinity: 2
      m_PostInfinity: 2
      m_RotationOrder: 4
    attribute: m_SizeDelta.x
    path: targetRot/targetOut
    classID: 224
    script: {fileID: 0}
  - curve:
      serializedVersion: 2
      m_Curve:
      - time: 0
        value: -80
        inSlope: 369.28574
        outSlope: 662.60956
        tangentMode: 1
      - time: 0.16666667
        value: -31.452919
        inSlope: 131.74603
        outSlope: 131.74603
        tangentMode: 0
      - time: 1.3666667
        value: -31.452919
        inSlope: -110.72701
        outSlope: -110.72701
        tangentMode: 0
      - time: 1.5333333
        value: -80
        inSlope: -647.30115
        outSlope: -184.64291
        tangentMode: 1
      - time: 3
        value: -80
        inSlope: Infinity
        outSlope: 0
        tangentMode: 7
      m_PreInfinity: 2
      m_PostInfinity: 2
      m_RotationOrder: 4
    attribute: m_SizeDelta.y
    path: targetRot/targetOut
    classID: 224
    script: {fileID: 0}
  m_PPtrCurves: []
  m_SampleRate: 30
  m_WrapMode: 0
  m_Bounds:
    m_Center: {x: 0, y: 0, z: 0}
    m_Extent: {x: 0, y: 0, z: 0}
  m_ClipBindingConstant:
    genericBindings:
    - path: 1654722196
      attribute: 1967290853
      script: {fileID: 0}
      classID: 224
      customType: 0
      isPPtrCurve: 0
    - path: 1654722196
      attribute: 38095219
      script: {fileID: 0}
      classID: 224
      customType: 0
      isPPtrCurve: 0
    pptrCurveMapping: []
  m_AnimationClipSettings:
    serializedVersion: 2
    m_AdditiveReferencePoseClip: {fileID: 0}
    m_AdditiveReferencePoseTime: 0
    m_StartTime: 0
    m_StopTime: 3
    m_OrientationOffsetY: 0
    m_Level: 0
    m_CycleOffset: 0
    m_HasAdditiveReferencePose: 0
    m_LoopTime: 1
    m_LoopBlend: 0
    m_LoopBlendOrientation: 0
    m_LoopBlendPositionY: 0
    m_LoopBlendPositionXZ: 0
    m_KeepOriginalOrientation: 0
    m_KeepOriginalPositionY: 1
    m_KeepOriginalPositionXZ: 0
    m_HeightFromFeet: 0
    m_Mirror: 0
  m_EditorCurves:
  - curve:
      serializedVersion: 2
      m_Curve:
      - time: 0
        value: -80
        inSlope: 366.7695
        outSlope: 619.81757
        tangentMode: 1
      - time: 0.16666667
        value: -31.872292
        inSlope: 131.29315
        outSlope: 131.29315
        tangentMode: 0
      - time: 1.3666667
        value: -31.872292
        inSlope: -120.93926
        outSlope: -120.93926
        tangentMode: 0
      - time: 1.5333333
        value: -80
        inSlope: -647.30115
        outSlope: -183.3848
        tangentMode: 1
      - time: 3
        value: -80
        inSlope: Infinity
        outSlope: 0
        tangentMode: 7
      m_PreInfinity: 2
      m_PostInfinity: 2
      m_RotationOrder: 4
    attribute: m_SizeDelta.x
    path: targetRot/targetOut
    classID: 224
    script: {fileID: 0}
  - curve:
      serializedVersion: 2
      m_Curve:
      - time: 0
        value: -80
        inSlope: 369.28574
        outSlope: 662.60956
        tangentMode: 1
      - time: 0.16666667
        value: -31.452919
        inSlope: 131.74603
        outSlope: 131.74603
        tangentMode: 0
      - time: 1.3666667
        value: -31.452919
        inSlope: -110.72701
        outSlope: -110.72701
        tangentMode: 0
      - time: 1.5333333
        value: -80
        inSlope: -647.30115
        outSlope: -184.64291
        tangentMode: 1
      - time: 3
        value: -80
        inSlope: Infinity
        outSlope: 0
        tangentMode: 7
      m_PreInfinity: 2
      m_PostInfinity: 2
      m_RotationOrder: 4
    attribute: m_SizeDelta.y
    path: targetRot/targetOut
    classID: 224
    script: {fileID: 0}
  m_EulerEditorCurves: []
  m_HasGenericRootTransform: 0
  m_HasMotionFloatCurves: 0
  m_GenerateMotionCurves: 0
  m_Events: []
