%YAML 1.1
%TAG !u! tag:unity3d.com,2011:
--- !u!74 &7400000
AnimationClip:
  m_ObjectHideFlags: 0
  m_PrefabParentObject: {fileID: 0}
  m_PrefabInternal: {fileID: 0}
  m_Name: anim_packCounterOutro
  serializedVersion: 6
  m_Legacy: 0
  m_Compressed: 0
  m_UseHighQualityCurve: 1
  m_RotationCurves: []
  m_CompressedRotationCurves: []
  m_EulerCurves: []
  m_PositionCurves: []
  m_ScaleCurves: []
  m_FloatCurves:
  - curve:
      serializedVersion: 2
      m_Curve:
      - time: 0
        value: 0.0000076293945
        inSlope: -0.000076293945
        outSlope: -0.000076293945
        tangentMode: 10
      - time: 0.1
        value: 0
        inSlope: -0.000083923966
        outSlope: -0.000083923966
        tangentMode: 10
      - time: 0.26666668
        value: -0.000015259
        inSlope: -0.000091553986
        outSlope: -0.000091553986
        tangentMode: 10
      m_PreInfinity: 2
      m_PostInfinity: 2
      m_RotationOrder: 4
    attribute: m_AnchoredPosition.x
    path: PackCounter
    classID: 224
    script: {fileID: 0}
  - curve:
      serializedVersion: 2
      m_Curve:
      - time: 0
        value: -459.5
        inSlope: 1285
        outSlope: 1285
        tangentMode: 10
      - time: 0.1
        value: -331
        inSlope: -128.49988
        outSlope: -128.49988
        tangentMode: 10
      - time: 0.26666668
        value: -588
        inSlope: -1541.9998
        outSlope: -1541.9998
        tangentMode: 10
      m_PreInfinity: 2
      m_PostInfinity: 2
      m_RotationOrder: 4
    attribute: m_AnchoredPosition.y
    path: PackCounter
    classID: 224
    script: {fileID: 0}
  - curve:
      serializedVersion: 2
      m_Curve:
      - time: 0
        value: 346
        inSlope: 2180
        outSlope: 2180
        tangentMode: 10
      - time: 0.1
        value: 564
        inSlope: -343.99988
        outSlope: -343.99988
        tangentMode: 10
      - time: 0.26666668
        value: 86
        inSlope: -2867.9998
        outSlope: -2867.9998
        tangentMode: 10
      m_PreInfinity: 2
      m_PostInfinity: 2
      m_RotationOrder: 4
    attribute: m_SizeDelta.x
    path: PackCounter
    classID: 224
    script: {fileID: 0}
  - curve:
      serializedVersion: 2
      m_Curve:
      - time: 0
        value: -919
        inSlope: 1160
        outSlope: 1160
        tangentMode: 10
      - time: 0.1
        value: -803
        inSlope: -181.99994
        outSlope: -181.99994
        tangentMode: 10
      - time: 0.26666668
        value: -1057
        inSlope: -1523.9999
        outSlope: -1523.9999
        tangentMode: 10
      m_PreInfinity: 2
      m_PostInfinity: 2
      m_RotationOrder: 4
    attribute: m_SizeDelta.y
    path: PackCounter
    classID: 224
    script: {fileID: 0}
  m_PPtrCurves: []
  m_SampleRate: 30
  m_WrapMode: 0
  m_Bounds:
    m_Center: {x: 0, y: 0, z: 0}
    m_Extent: {x: 0, y: 0, z: 0}
  m_ClipBindingConstant:
    genericBindings:
    - path: 1451258000
      attribute: 1460864421
      script: {fileID: 0}
      classID: 224
      customType: 0
      isPPtrCurve: 0
    - path: 1451258000
      attribute: 538195251
      script: {fileID: 0}
      classID: 224
      customType: 0
      isPPtrCurve: 0
    - path: 1451258000
      attribute: 1967290853
      script: {fileID: 0}
      classID: 224
      customType: 0
      isPPtrCurve: 0
    - path: 1451258000
      attribute: 38095219
      script: {fileID: 0}
      classID: 224
      customType: 0
      isPPtrCurve: 0
    pptrCurveMapping: []
  m_AnimationClipSettings:
    serializedVersion: 2
    m_AdditiveReferencePoseClip: {fileID: 0}
    m_AdditiveReferencePoseTime: 0
    m_StartTime: 0
    m_StopTime: 0.26666668
    m_OrientationOffsetY: 0
    m_Level: 0
    m_CycleOffset: 0
    m_HasAdditiveReferencePose: 0
    m_LoopTime: 0
    m_LoopBlend: 0
    m_LoopBlendOrientation: 0
    m_LoopBlendPositionY: 0
    m_LoopBlendPositionXZ: 0
    m_KeepOriginalOrientation: 0
    m_KeepOriginalPositionY: 1
    m_KeepOriginalPositionXZ: 0
    m_HeightFromFeet: 0
    m_Mirror: 0
  m_EditorCurves:
  - curve:
      serializedVersion: 2
      m_Curve:
      - time: 0
        value: 0.0000076293945
        inSlope: -0.000076293945
        outSlope: -0.000076293945
        tangentMode: 10
      - time: 0.1
        value: 0
        inSlope: -0.000083923966
        outSlope: -0.000083923966
        tangentMode: 10
      - time: 0.26666668
        value: -0.000015259
        inSlope: -0.000091553986
        outSlope: -0.000091553986
        tangentMode: 10
      m_PreInfinity: 2
      m_PostInfinity: 2
      m_RotationOrder: 4
    attribute: m_AnchoredPosition.x
    path: PackCounter
    classID: 224
    script: {fileID: 0}
  - curve:
      serializedVersion: 2
      m_Curve:
      - time: 0
        value: -459.5
        inSlope: 1285
        outSlope: 1285
        tangentMode: 10
      - time: 0.1
        value: -331
        inSlope: -128.49988
        outSlope: -128.49988
        tangentMode: 10
      - time: 0.26666668
        value: -588
        inSlope: -1541.9998
        outSlope: -1541.9998
        tangentMode: 10
      m_PreInfinity: 2
      m_PostInfinity: 2
      m_RotationOrder: 4
    attribute: m_AnchoredPosition.y
    path: PackCounter
    classID: 224
    script: {fileID: 0}
  - curve:
      serializedVersion: 2
      m_Curve:
      - time: 0
        value: 346
        inSlope: 2180
        outSlope: 2180
        tangentMode: 10
      - time: 0.1
        value: 564
        inSlope: -343.99988
        outSlope: -343.99988
        tangentMode: 10
      - time: 0.26666668
        value: 86
        inSlope: -2867.9998
        outSlope: -2867.9998
        tangentMode: 10
      m_PreInfinity: 2
      m_PostInfinity: 2
      m_RotationOrder: 4
    attribute: m_SizeDelta.x
    path: PackCounter
    classID: 224
    script: {fileID: 0}
  - curve:
      serializedVersion: 2
      m_Curve:
      - time: 0
        value: -919
        inSlope: 1160
        outSlope: 1160
        tangentMode: 10
      - time: 0.1
        value: -803
        inSlope: -181.99994
        outSlope: -181.99994
        tangentMode: 10
      - time: 0.26666668
        value: -1057
        inSlope: -1523.9999
        outSlope: -1523.9999
        tangentMode: 10
      m_PreInfinity: 2
      m_PostInfinity: 2
      m_RotationOrder: 4
    attribute: m_SizeDelta.y
    path: PackCounter
    classID: 224
    script: {fileID: 0}
  m_EulerEditorCurves: []
  m_HasGenericRootTransform: 0
  m_HasMotionFloatCurves: 0
  m_GenerateMotionCurves: 0
  m_Events: []
