[
  {
    "Key": "GOLD_TEXT",
    "Value": "Or"
  },
  {
    "Key": "CREDITS_TEXT",
    "Value": "Crédits Radar Defense"
  },
  {
    "Key": "TAP_TO_CONTINUE_TEXT",
    "Value": "TAPER POUR CONTINUER"
  },
  {
    "Key": "CONSUMABLE_TEXT",
    "Value": "Consommable"
  },
  {
    "Key": "WEAPON_UPGRADE_TEXT",
    "Value": "Amélioration d'arme"
  },
  {
    "Key": "SKIP_TEXT",
    "Value": "Passer"
  },
  {
    "Key": "PULSE_TEXT",
    "Value": "Impulsion"
  },
  {
    "Key": "SLOWER_TEXT",
    "Value": "I.E.M"
  },
  {
    "Key": "OHSHIT_TEXT",
    "Value": "Missiles Autoguidés"
  },
  {
    "Key": "REPAIR_TEXT",
    "Value": "Réparation"
  },
  {
    "Key": "RELOAD_TEXT",
    "Value": "Munitions"
  },
  {
    "Key": "LEVEL_TEXT",
    "Value": "Secteur"
  },
  {
    "Key": "WAVE_TEXT",
    "Value": "Vague"
  },
  {
    "Key": "NEXT_WAVE_IN_TEXT",
    "Value": "Prochaine dans"
  },
  {
    "Key": "SELECT_WEAPON_TEXT",
    "Value": "Sélectionnez votre arme!"
  },
  {
    "Key": "WEAPON_ARTILLERY_NAME",
    "Value": "Artillerie"
  },
  {
    "Key": "WEAPON_FLAK_NAME",
    "Value": "Flak"
  },
  {
    "Key": "WEAPON_MISSILE_NAME",
    "Value": "Missile"
  },
  {
    "Key": "WEAPON_LASER_NAME",
    "Value": "Laser"
  },
  {
    "Key": "WEAPON_RAILGUN_NAME",
    "Value": "Railgun"
  },
  {
    "Key": "WEAPON_ROCKETS_NAME",
    "Value": "Roquettes"
  },
  {
    "Key": "BUILDING_CITY_NAME",
    "Value": "Ville"
  },
  {
    "Key": "BUILDING_DEPOT_NAME",
    "Value": "Dépot"
  },
  {
    "Key": "BUILDING_FACTORY_NAME",
    "Value": "Usine"
  },
  {
    "Key": "BUILDING_POWERPLANT_NAME",
    "Value": "Centrale E."
  },
  {
    "Key": "BUILDING_RESEARCHCENTER_NAME",
    "Value": "Centre R&D"
  },
  {
    "Key": "ENEMY_ASSAULT_HELICOPTER_NAME",
    "Value": "H.A.L"
  },
  {
    "Key": "ENEMY_BALLISTIC_MISSILE_NAME",
    "Value": "M.d.C"
  },
  {
    "Key": "ENEMY_BOMBER_NAME",
    "Value": "Bombardier"
  },
  {
    "Key": "ENEMY_BUGGY_NAME",
    "Value": "V.A.L"
  },
  {
    "Key": "ENEMY_CONVOY_NAME",
    "Value": "Convoi"
  },
  {
    "Key": "ENEMY_DRONE_NAME",
    "Value": "Drone"
  },
  {
    "Key": "ENEMY_FIGHTER_JET_NAME",
    "Value": "Chasseur"
  },
  {
    "Key": "ENEMY_HEAVY_TANK_NAME",
    "Value": "Tank L."
  },
  {
    "Key": "ENEMY_HELICOPTER_NAME",
    "Value": "Hélicoptère"
  },
  {
    "Key": "ENEMY_INFANTRY_NAME",
    "Value": "Infantrie"
  },
  {
    "Key": "ENEMY_JEEP_NAME",
    "Value": "4x4 Blindé"
  },
  {
    "Key": "ENEMY_LAV_NAME",
    "Value": "V.B.L"
  },
  {
    "Key": "ENEMY_TANK_NAME",
    "Value": "Tank"
  },
  {
    "Key": "ENEMY_TRANSPORT_PLANE_NAME",
    "Value": "Cargo"
  },
  {
    "Key": "ENEMY_VETERAN_RANK_NAME",
    "Value": "[Vétéran]"
  },
  {
    "Key": "ENEMY_ELITE_RANK_NAME",
    "Value": "[Élite]"
  },
  {
    "Key": "ENEMY_HERO_RANK_NAME",
    "Value": "[Héro]"
  },
  {
    "Key": "LEVEL_CLEARED_TEXT",
    "Value": "Secteur réussi!"
  },
  {
    "Key": "LEVEL_FAILED_TEXT",
    "Value": "Secteur échoué"
  },
  {
    "Key": "LEVEL_RETREAT_TEXT",
    "Value": "Retraite"
  },
  {
    "Key": "INCOMING_MISSILE_TEXT",
    "Value": "MISSILE DÉTECTÉ"
  },
  {
    "Key": "DOUBLE_KILL_TEXT",
    "Value": "DOUBLÉ!!"
  },
  {
    "Key": "TRIPLE_KILL_TEXT",
    "Value": "TRIPLÉ!!!"
  },
  {
    "Key": "QUADRA_KILL_TEXT",
    "Value": "QUADRUPLÉ!!!!"
  },
  {
    "Key": "PENTA_KILL_TEXT",
    "Value": "QUINTUPLÉ!!!!!"
  },
  {
    "Key": "HEXA_KILL_TEXT",
    "Value": "SEXTUPLE KILL!!!!!"
  },
  {
    "Key": "HEPTA_KILL_TEXT",
    "Value": "SEPTUPLE KILL!!!!!"
  },
  {
    "Key": "OCTA_KILL_TEXT",
    "Value": "OCTUPLE KILL!!!!!"
  },
  {
    "Key": "NONA_KILL_TEXT",
    "Value": "NONTUPLE KILL!!!!!"
  },
  {
    "Key": "DECA_KILL_TEXT",
    "Value": "DECTUPLE KILL!!!!!"
  },
  {
    "Key": "BOOST_DAMAGE_SPEED_TEXT",
    "Value": "+DMG"
  },
  {
    "Key": "BOOST_REGEN_SPEED_TEXT",
    "Value": "+RÉGEN"
  },
  {
    "Key": "BOOST_RELOAD_SPEED_TEXT",
    "Value": "+RECHARGE"
  },
  {
    "Key": "BOOST_PROJECTILE_SPEED_TEXT",
    "Value": "+VIT.PROJ."
  },
  {
    "Key": "BOOST_RADAR_FREQUENCY_TEXT",
    "Value": "+RADAR"
  },
  {
    "Key": "SPECIAL_REWARDS_TEXT",
    "Value": "Récompenses spéciales"
  },
  {
    "Key": "LOOT_TABLE_TEXT",
    "Value": "TABLE DE TIRAGE"
  },
  {
    "Key": "RARITY_RARE_TEXT",
    "Value": "Rare"
  },
  {
    "Key": "RARITY_UNCOMMON_TEXT",
    "Value": "Peu commun"
  },
  {
    "Key": "RARITY_COMMON_TEXT",
    "Value": "Commun"
  },
  {
    "Key": "FIRST_OBJECTIVE_NAME_TEXT",
    "Value": "Objectif 1-Étoile"
  },
  {
    "Key": "SECOND_OBJECTIVE_NAME_TEXT",
    "Value": "Objectif 2-Étoile"
  },
  {
    "Key": "THIRD_OBJECTIVE_NAME_TEXT",
    "Value": "Objectif 3-Étoile"
  },
  {
    "Key": "MISSION_FIRST_OBJECTIVE_DESC_TEXT",
    "Value": "Défi réussi"
  },
  {
    "Key": "MISSION_SECOND_OBJECTIVE_DESC_TEXT",
    "Value": "Aucune base détruite"
  },
  {
    "Key": "MISSION_THIRD_OBJECTIVE_DESC_TEXT",
    "Value": "Aucune base endommagée"
  },
  {
    "Key": "LAST_STAND_FIRST_OBJECTIVE_DESC_TEXT",
    "Value": "Vague 10 réussie"
  },
  {
    "Key": "LAST_STAND_SECOND_OBJECTIVE_DESC_TEXT",
    "Value": "Vague 20 réussie"
  },
  {
    "Key": "LAST_STAND_THIRD_OBJECTIVE_DESC_TEXT",
    "Value": "Vague 30 réussie"
  },
  {
    "Key": "KILLS_TEXT",
    "Value": "Cibles détruites"
  },
  {
    "Key": "LOOT_TEXT",
    "Value": "Butin"
  },
  {
    "Key": "WAVE_BONUS_TEXT",
    "Value": "Vagues Accélérées"
  },
  {
    "Key": "MULTI_KILLS_TEXT",
    "Value": "Destructions Multiples"
  },
  {
    "Key": "BONUS_BOOSTER_TEXT",
    "Value": "Bonus de Booster"
  },
  {
    "Key": "LAST_STAND_BONUS_TEXT",
    "Value": "Bonus d'Ultime Résistance"
  },
  {
    "Key": "MATCH_REWARD_TEXT",
    "Value": "RÉCOMPENSE DE MATCH"
  },
  {
    "Key": "TOTAL_TEXT",
    "Value": "TOTAL"
  },
  {
    "Key": "SCORE_TEXT",
    "Value": "SCORE"
  },
  {
    "Key": "CONTINUE_BUTTON",
    "Value": "Continuer"
  },
  {
    "Key": "ABORT_BUTTON",
    "Value": "Abandonner"
  },
  {
    "Key": "BACK_MENU_BUTTON",
    "Value": "Retour au menu"
  },
  {
    "Key": "NEXT_BUTTON",
    "Value": "Prochain"
  },
  {
    "Key": "RETRY_BUTTON",
    "Value": "Recommencer"
  },
  {
    "Key": "TUTORIAL_STEP0_TEXT",
    "Value": "Sergent ! \nBienvenu au centre de commande : \nRADAR WARFARE. \n\nVous êtes désormais responsable de la défense de ce secteur. \nProtéger les bases civiles à tout prix!"
  },
  {
    "Key": "TUTORIAL_STEP1_TEXT",
    "Value": "Si la vie de la Cité atteint 0, la mission est un échec."
  },
  {
    "Key": "TUTORIAL_STEP2_TEXT",
    "Value": "Sélectionnez votre arme. \nSelon la mission, vous aurez à déployer jusqu'à 3 armes."
  },
  {
    "Key": "TUTORIAL_STEP3_TEXT",
    "Value": "Votre stock de munitions se reconstituera au fil du temps."
  },
  {
    "Key": "TUTORIAL_STEP4_TEXT",
    "Value": "Le balayage Radar repère et affiche les unités ennemies pendant une courte durée."
  },
  {
    "Key": "TUTORIAL_STEP5_TEXT",
    "Value": "Utilisez un support de RÉPARATION pour réparer les bases et les armes."
  },
  {
    "Key": "TUTORIAL_STEP6_TEXT",
    "Value": "Vous êtes prêt pour votre première mission d'entrainement! \n\nÀ vous de jouer Sergent."
  },
  {
    "Key": "TUTORIAL_STEP8_TEXT",
    "Value": "Unité ennemie détectée! \nTapez ou glisser-lacher à proximité de la cible pour faire feu."
  },
  {
    "Key": "TUTORIAL_STEP10_TEXT",
    "Value": "Bon travail Sergent! \nVoyons maintenant comment améliorer vos armes."
  },
  {
    "Key": "TUTORIAL_STEP12_TEXT",
    "Value": "Achetez un pack d'améliorations à l'aide de vos Crédits!"
  },
  {
    "Key": "TUTORIAL_STEP14_TEXT",
    "Value": "Améliorez votre arme! Les cartes nécéssaires à l'amélioration de la caractéristique de l'arme seront consommées."
  },
  {
    "Key": "TUTORIAL_STEP15_TEXT",
    "Value": "Améliorez votre arme!\n\nLes cartes nécéssaires à l'amélioration de la caractéristique de l'arme seront consommées."
  },
  {
    "Key": "TUTORIAL_STEP16_TEXT",
    "Value": "Améliorez votre arme! Les cartes nécéssaires à l'amélioration de la caractéristique de l'arme seront consommées."
  },
  {
    "Key": "TUTORIAL_STEP17_TEXT",
    "Value": "Progressez de Mission en Mission et débloquez de nouvelles armes à améliorer. \n\nBonne chance Sergent!"
  },
  {
    "Key": "TUTORIAL_STEP19_TEXT",
    "Value": "Achetez un pack d'améliorations à l'aide de vos Crédits!"
  },
  {
    "Key": "TUTORIAL_STEP20_TEXT",
    "Value": "Continuer d'améliorer vos armes, Sergent."
  },
  {
    "Key": "FREE_TEXT",
    "Value": "GRATUIT"
  },
  {
    "Key": "COMING_SOON_TEXT",
    "Value": "Prochainement!"
  },
  {
    "Key": "MENU_PLAY_BUTTON",
    "Value": "JOUER"
  },
  {
    "Key": "CAMPAIGN_TAB",
    "Value": "Campagne"
  },
  {
    "Key": "RECOMMANDED_WEAPON_LVL_TEXT",
    "Value": "Niveau d'arme recommandé"
  },
  {
    "Key": "CAMPAIGN_SECTION1_TITLE",
    "Value": "Campagne Soldat"
  },
  {
    "Key": "CAMPAIGN_SECTION2_TITLE",
    "Value": "Campagne Caporal"
  },
  {
    "Key": "CAMPAIGN_SECTION3_TITLE",
    "Value": "Campagne Sergent"
  },
  {
    "Key": "CAMPAIGN_SECTION4_TITLE",
    "Value": "Campagne Lieutenant"
  },
  {
    "Key": "CAMPAIGN_SECTION5_TITLE",
    "Value": "Campagne Capitaine"
  },
  {
    "Key": "CAMPAIGN_SECTION6_TITLE",
    "Value": "Campagne Commandant"
  },
  {
    "Key": "CHALLENGE_TUTORIAL_NAME",
    "Value": "Tutoriel"
  },
  {
    "Key": "CHALLENGE_MISSION1_NAME",
    "Value": "Autoroute"
  },
  {
    "Key": "CHALLENGE_MISSION2_NAME",
    "Value": "Route 14"
  },
  {
    "Key": "CHALLENGE_MISSION3_NAME",
    "Value": "Sentier Obscur"
  },
  {
    "Key": "CHALLENGE_MISSION4_NAME",
    "Value": "Destrier Blanc"
  },
  {
    "Key": "CHALLENGE_MISSION5_NAME",
    "Value": "Jonction"
  },
  {
    "Key": "CHALLENGE_MISSION6_NAME",
    "Value": "Impasse"
  },
  {
    "Key": "CHALLENGE_MISSION7_NAME",
    "Value": "Bord de L'eau"
  },
  {
    "Key": "CHALLENGE_MISSION8_NAME",
    "Value": "Haute Crête"
  },
  {
    "Key": "CHALLENGE_MISSION9_NAME",
    "Value": "Détour"
  },
  {
    "Key": "CHALLENGE_MISSION10_NAME",
    "Value": "Baie Rouge"
  },
  {
    "Key": "CHALLENGE_MISSION11_NAME",
    "Value": "Centrale"
  },
  {
    "Key": "CHALLENGE_MISSION12_NAME",
    "Value": "District 21"
  },
  {
    "Key": "CHALLENGE_MISSION13_NAME",
    "Value": "Canyon"
  },
  {
    "Key": "CHALLENGE_MISSION14_NAME",
    "Value": "Triangulation"
  },
  {
    "Key": "CHALLENGE_MISSION15_NAME",
    "Value": "Araneae"
  },
  {
    "Key": "CHALLENGE_MISSION16_NAME",
    "Value": "Testudo"
  },
  {
    "Key": "CHALLENGE_MISSION17_NAME",
    "Value": "Citadelle"
  },
  {
    "Key": "CHALLENGE_MISSION18_NAME",
    "Value": "Tirs Croisés"
  },
  {
    "Key": "CHALLENGE_MISSION19_NAME",
    "Value": "Pré Carré"
  },
  {
    "Key": "CHALLENGE_MISSION20_NAME",
    "Value": "Rotative"
  },
  {
    "Key": "CHALLENGE_MISSION21_NAME",
    "Value": "Toile"
  },
  {
    "Key": "CHALLENGE_MISSION22_NAME",
    "Value": "Cité"
  },
  {
    "Key": "CHALLENGE_MISSION23_NAME",
    "Value": "Industries"
  },
  {
    "Key": "CHALLENGE_MISSION24_NAME",
    "Value": "Champs Mortels"
  },
  {
    "Key": "CHALLENGE_MISSION25_NAME",
    "Value": "Capitole"
  },
  {
    "Key": "BOSS_POPUP_TITLE",
    "Value": "DÉFI UNITÉ SPÉCIALE DÉBLOQUÉ"
  },
  {
    "Key": "BOSS_POPUP_DESC",
    "Value": "Mission facultative de difficulté et récompense supérieures"
  },
  {
    "Key": "LAST_STAND_TAB",
    "Value": "Ultime Résistance"
  },
  {
    "Key": "LAST_STAND_DESC",
    "Value": "Mode Ultime Résistance est un défi à vagues infinies pour joueurs experts. Ici, la force de vos armes et votre endurance seront testés jusqu'à leurs limites. Utilisez vos supports à bon escient ... \n\nCombien de temps allez-vous tenir Soldat?"
  },
  {
    "Key": "NORMAL_LAST_STAND_TITLE",
    "Value": "Escarmouche"
  },
  {
    "Key": "HARD_LAST_STAND_TITLE",
    "Value": "Raid"
  },
  {
    "Key": "INSANE_LAST_STAND_TITLE",
    "Value": "Assaut"
  },
  {
    "Key": "CHALLENGE_LAST_STAND1_NAME",
    "Value": "Frontale"
  },
  {
    "Key": "CHALLENGE_LAST_STAND2_NAME",
    "Value": "Tenaille"
  },
  {
    "Key": "CHALLENGE_LAST_STAND3_NAME",
    "Value": "Contournement"
  },
  {
    "Key": "BEST_SCORE_TEXT",
    "Value": "Meilleur Score"
  },
  {
    "Key": "LEADERBOARD_TEXT",
    "Value": "Classement"
  },
  {
    "Key": "EVENTS_TAB",
    "Value": "Événements"
  },
  {
    "Key": "MENU_STORE_BUTTON",
    "Value": "MAGASIN"
  },
  {
    "Key": "STORE_TEXT",
    "Value": "Magasin"
  },
  {
    "Key": "NOT_ENOUGH_CURRENCY_TEXT",
    "Value": "PAS ASSEZ DE RESSOURCES"
  },
  {
    "Key": "YOU_ARE_MISSING_TEXT",
    "Value": "Il vous manque"
  },
  {
    "Key": "PACKS_TAB",
    "Value": "Packs"
  },
  {
    "Key": "UPGRADES_TEXT",
    "Value": "Améliorations"
  },
  {
    "Key": "CONSUMABLES_TEXT",
    "Value": "Supports"
  },
  {
    "Key": "PACK_SECTION1_TITLE",
    "Value": "PACKS GRATUITS!"
  },
  {
    "Key": "PACK_SECTION2_TITLE",
    "Value": "PACKS DE SUPPORT ET D'ARMES"
  },
  {
    "Key": "PACK_SECTION3_TITLE",
    "Value": "BUNDLES"
  },
  {
    "Key": "PACK_SECTION4_TITLE",
    "Value": "BOOSTERS"
  },
  {
    "Key": "PACK_CREDIT_SECTION1_TITLE",
    "Value": "PACKS CRÉDIT"
  },
  {
    "Key": "PACK_GOLD_SECTION1_TITLE",
    "Value": "PACKS OR"
  },
  {
    "Key": "PACK_SUPPORT_NAME",
    "Value": "Packs de support"
  },
  {
    "Key": "PACK_BUNDLE1_NAME",
    "Value": "Packs d'armes standards"
  },
  {
    "Key": "PACK_BUNDLE2_NAME",
    "Value": "Packs d'armes avancées"
  },
  {
    "Key": "PACK_ARTILLERY_NAME",
    "Value": "Pack Artillerie"
  },
  {
    "Key": "PACK_FLAK_NAME",
    "Value": "Pack Flak"
  },
  {
    "Key": "PACK_MISSILE_NAME",
    "Value": "Pack Missile"
  },
  {
    "Key": "PACK_LASER_NAME",
    "Value": "Pack Laser"
  },
  {
    "Key": "PACK_RAILGUN_NAME",
    "Value": "Pack Railgun"
  },
  {
    "Key": "PACK_ROCKETS_NAME",
    "Value": "Pack Roquettes"
  },
  {
    "Key": "PACK_GOLD1_NAME",
    "Value": "Pack Or I"
  },
  {
    "Key": "PACK_GOLD2_NAME",
    "Value": "Pack Or II"
  },
  {
    "Key": "PACK_GOLD3_NAME",
    "Value": "Pack Or III"
  },
  {
    "Key": "PACK_GOLD4_NAME",
    "Value": "Pack Or IV"
  },
  {
    "Key": "PACK_GOLD5_NAME",
    "Value": "Pack Or V"
  },
  {
    "Key": "PACK_GOLD6_NAME",
    "Value": "Pack Or VI"
  },
  {
    "Key": "PACK_CREDIT1_NAME",
    "Value": "Pack Crédit I"
  },
  {
    "Key": "PACK_CREDIT2_NAME",
    "Value": "Pack Crédit II"
  },
  {
    "Key": "PACK_CREDIT3_NAME",
    "Value": "Pack Crédit III"
  },
  {
    "Key": "PACK_CREDIT4_NAME",
    "Value": "Pack Crédit IV"
  },
  {
    "Key": "CREDITS_TAB",
    "Value": "Crédits"
  },
  {
    "Key": "GOLDS_TAB",
    "Value": "Or"
  },
  {
    "Key": "MENU_UPGRADE_BUTTON",
    "Value": "AMÉLIORATIONS"
  },
  {
    "Key": "UPGRADE_BUTTON",
    "Value": "Améliorer"
  },
  {
    "Key": "TO_UPGRADE_TEXT",
    "Value": "AMÉLIORER"
  },
  {
    "Key": "WEAPON_UNLOCKED_TEXT",
    "Value": "Arme\nDébloquée!"
  },
  {
    "Key": "CONSUMABLE_UNLOCKED_TEXT",
    "Value": "Support\nDébloqué!"
  },
  {
    "Key": "WEAPONS_TAB",
    "Value": "Armes"
  },
  {
    "Key": "UPGRADE_PACK_TEXT",
    "Value": "Pack d'amélioration"
  },
  {
    "Key": "5_CARDS_TEXT",
    "Value": "5 Cartes"
  },
  {
    "Key": "15_CARDS_TEXT",
    "Value": "15 Cartes"
  },
  {
    "Key": "BULLET_SPEED_TEXT",
    "Value": "Vitesse de projectile"
  },
  {
    "Key": "MISSILE_SPEED_TEXT",
    "Value": "Vitesse de projectile"
  },
  {
    "Key": "ROCKET_SPEED_TEXT",
    "Value": "Vitesse de projectile"
  },
  {
    "Key": "LASER_SPEED_TEXT",
    "Value": "Temps de charge"
  },
  {
    "Key": "RELOAD_TIME_TEXT",
    "Value": "Munitions"
  },
  {
    "Key": "REGENERATION_TEXT",
    "Value": "Régéneration de munitions"
  },
  {
    "Key": "AIR_DAMAGE_TEXT",
    "Value": "Dégâts Air"
  },
  {
    "Key": "GROUND_DAMAGE_TEXT",
    "Value": "Dégâts Sol"
  },
  {
    "Key": "EXPLOSION_RADIUS_TEXT",
    "Value": "Rayon d'explosion"
  },
  {
    "Key": "LASER_RADIUS_TEXT",
    "Value": "Largeur du laser"
  },
  {
    "Key": "SIGHT_RADIUS_TEXT",
    "Value": "Rayon de visibilité"
  },
  {
    "Key": "HITPOINTS_TEXT",
    "Value": "Points de vie"
  },
  {
    "Key": "ARTILLERY_TEXT",
    "Value": "Artillerie"
  },
  {
    "Key": "FLAK_TEXT",
    "Value": "Flak"
  },
  {
    "Key": "MISSILE_TEXT",
    "Value": "Missile"
  },
  {
    "Key": "RAILGUN_TEXT",
    "Value": "Railgun"
  },
  {
    "Key": "ROCKETS_TEXT",
    "Value": "Roquettes"
  },
  {
    "Key": "LASER_TEXT",
    "Value": "Laser"
  },
  {
    "Key": "ARTILLERY_DESC",
    "Value": "L'une des armes conventionnelle Sol-Sol les plus dévastatrices, l'artillerie peut aussi devenir un moyen de défense anti-aérien efficace entre les mains d'un tireur habile."
  },
  {
    "Key": "FLAK_DESC",
    "Value": "Aussi appelée Canon Anti-Aérien ou Artillerie-Anti-Air, cette arme est un canon à tir rapide spécialisé dans la lutte anti-aérienne. Lorsque vous ciblez des unités terrestres , les dommages causés par cette arme reste considérables."
  },
  {
    "Key": "MISSILE_DESC",
    "Value": "Projectile auto-propulsé, le missile est aussi dangereux pour les unités terrestres que pour les unités aériennes. Cette arme est équipée d'un système de guidage laser simple, capable de verrouiller sur une cible de proche."
  },
  {
    "Key": "LASER_DESC",
    "Value": "Le canon laser est une arme à énergie dirigée (AED) concentrant une énorme quantité d'énergie dans un petit faisceau de lumière, capable de découper en morceaux aussi bien les unités terrestres qu'aériennes."
  },
  {
    "Key": "RAILGUN_DESC",
    "Value": "Le Railgun est un canon électromagnétique tirant des projectiles à haute vélocité. En raison de l'énergie cinétique très élevée de ses projectiles, le Railgun est la meilleure arme antichar, tout en restant efficace contre les unités aériennes ."
  },
  {
    "Key": "ROCKETS_DESC",
    "Value": "Tirant une salve de 5 roquettes à charge hautement explosives, le lance-roquettes produit un tir de barrage. Avec une faible précision, mais une grande zone d'effet, le lance-roquettes est dévastateur contre tout type d'appareil."
  },
  {
    "Key": "CARDS_TEXT",
    "Value": "Cartes"
  },
  {
    "Key": "UNLOCK_TEXT",
    "Value": "Débloquer"
  },
  {
    "Key": "CONSUMABLES_TAB",
    "Value": "Supports"
  },
  {
    "Key": "REPAIR_DESC",
    "Value": "Pouvoir réparer vos armes et défenses sur le champ de bataille est un crucial. Le support de réparation vous aidera à survivre ou même à sortir indemne d'une bataille."
  },
  {
    "Key": "RELOAD_DESC",
    "Value": "L'éfficacite de Votre ligne d'approvisionnement déterminera l'issue de la bataille. Recharger vos armes aussi souvent que possible afin de de pas être à court de munitions au moment le plus critique."
  },
  {
    "Key": "PULSE_DESC",
    "Value": "En soutien à votre radar, l'impulsion scanner sert à détecter la position des unités ennemies entre deux balayage radar. L'impulsion continue à rafraîchir la position des unités ennemies tant qu'elle reste active."
  },
  {
    "Key": "SLOWER_DESC",
    "Value": "L'I.E.M, ou impulsion électromagnétique, délivre une impulsion à haute énergie sur le champ de bataille désactivant l'électronique et les ordinateurs des unités hostiles, réduisant considérablement leurs communications et leurs capacité de mouvements."
  },
  {
    "Key": "OHSHIT_DESC",
    "Value": "Dernière ligne de défense, les missiles autoguidés sont des armes devastatrices de type «Tire et Oublie» capable de trouver et de détruire leurs cibles. Utilisez-les lorsque vous êtes submergé ou quand tout vous semble perdu."
  },
  {
    "Key": "REPAIR_STATS",
    "Value": "MAX EQUIP: <color=#51FF00FF>3</color> \nPORTÉE: <color=#51FF00FF>Toutes les bases</color> \nDÉLAI DE RÉUTILISATION: <color=#51FF00FF>1 Seconde</color> \nQUANTITÉ DE REPARATION: <color=#51FF00FF>100 Points de vie</color> \nDURÉE DE LA RÉPARATION: <color=#51FF00FF>Instant</color> \nBASE ASSOCIÉE: <color=#51FF00FF>Usine</color>"
  },
  {
    "Key": "RELOAD_STATS",
    "Value": "MAX EQUIP: <color=#51FF00FF>3</color> \nPORTÉE: <color=#51FF00FF>Toutes les armes</color> \nDÉLAI DE RÉUTILISATION: <color=#51FF00FF>1 Seconde</color> \nQUANTITÉ DE MUNITION: <color=#51FF00FF>1 Clip</color> \nDURÉE DE LA RECHARGE: <color=#51FF00FF>1 Seconde</color> \nBASE ASSOCIÉE: <color=#51FF00FF>Dépot</color>"
  },
  {
    "Key": "PULSE_STATS",
    "Value": "MAX EQUIP: <color=#51FF00FF>3</color> \nPORTÉE: <color=#51FF00FF>Infini</color> \nDÉLAI DE RÉUTILISATION: <color=#51FF00FF>1 Seconde</color> \nTEMPS D'ACTIVITÉ : <color=#51FF00FF>10 Seconds</color> \nRÉSISTANCE DE BROUILLAGE: <color=#51FF00FF>100%</color> \nBASE ASSOCIÉE: <color=#51FF00FF>Centrale électrique</color>"
  },
  {
    "Key": "SLOWER_STATS",
    "Value": "MAX EQUIP: <color=#51FF00FF>3</color> \nPORTÉE: <color=#51FF00FF>Infini</color> \nDÉLAI DE RÉUTILISATION: <color=#51FF00FF>1 Seconde</color> \nRALENTISSEMENT: <color=#51FF00FF>70%</color> \nAUTRE EFFET: <color=#51FF00FF>Réduction de la cadence de tir 70%</color> \nBASE ASSOCIÉE: <color=#51FF00FF>Centre de recherche</color>"
  },
  {
    "Key": "OHSHIT_STATS",
    "Value": "MAX EQUIP: <color=#51FF00FF>3</color> \nPORTÉE: <color=#51FF00FF>Infini</color> \nDÉLAI DE RÉUTILISATION: <color=#51FF00FF>1 Seconde</color> \nMISSILES LANCÉS: <color=#51FF00FF>3 par arme</color> \nPUISSANCE DE FEU: <color=#51FF00FF>Extrême</color> \nBASE ASSOCIÉE: <color=#51FF00FF>Aucune</color>"
  },
  {
    "Key": "AMMUNITION_TEXT",
    "Value": "Munitions"
  },
  {
    "Key": "PULSE_TIME_TEXT",
    "Value": "Durée d'impulsion"
  },
  {
    "Key": "PULSE_SPEED_TEXT",
    "Value": "Vitesse d'impulsion"
  },
  {
    "Key": "HOMING_MISSILES_TEXT",
    "Value": "Missiles autoguidés"
  },
  {
    "Key": "DRONE_RANGE_TEXT",
    "Value": "Portée du drone"
  },
  {
    "Key": "DRONE_TIME_TEXT",
    "Value": "Durée du drone"
  },
  {
    "Key": "REPAIR_TEXT",
    "Value": "Points de réparation"
  },
  {
    "Key": "MENU_PROFILE_BUTTON",
    "Value": "PROFIL"
  },
  {
    "Key": "ACHIEVEMENTS_TAB",
    "Value": "Accomplissements"
  },
  {
    "Key": "ACHIEVEMENT_PROGRESSION_TEXT",
    "Value": "Progression des accomplissements"
  },
  {
    "Key": "CLICK_TO_GET_REWARD",
    "Value": "Cliquer pour avoir la récompense!"
  },
  {
    "Key": "CLAIM_NOW_TEXT",
    "Value": "Réclamer maintenant!"
  },
  {
    "Key": "ACHIEVEMENT_CHALLENGE_LV1_NAME",
    "Value": "Défenseur de l'Autoroute"
  },
  {
    "Key": "ACHIEVEMENT_CHALLENGE_LV1_DESC",
    "Value": "Finir Secteur Autoroute"
  },
  {
    "Key": "ACHIEVEMENT_CHALLENGE_LV2_NAME",
    "Value": "Défenseur de la Route 14"
  },
  {
    "Key": "ACHIEVEMENT_CHALLENGE_LV2_DESC",
    "Value": "Finir Secteur Route 14"
  },
  {
    "Key": "ACHIEVEMENT_CHALLENGE_LV3_NAME",
    "Value": "Défenseur du Sentier Obscur"
  },
  {
    "Key": "ACHIEVEMENT_CHALLENGE_LV3_DESC",
    "Value": "Finir le Secteur Sentier Obscur"
  },
  {
    "Key": "ACHIEVEMENT_CHALLENGE_LV4_NAME",
    "Value": "Défenseur du Destrier Blanc"
  },
  {
    "Key": "ACHIEVEMENT_CHALLENGE_LV4_DESC",
    "Value": "Finir le Secteur Destrier Blanc"
  },
  {
    "Key": "ACHIEVEMENT_CHALLENGE_LV5_NAME",
    "Value": "Défenseur de la Jonction"
  },
  {
    "Key": "ACHIEVEMENT_CHALLENGE_LV5_DESC",
    "Value": "Finir le Secteur Jonction"
  },
  {
    "Key": "ACHIEVEMENT_CHALLENGE_LV6_NAME",
    "Value": "Défenseur de l'Impasse"
  },
  {
    "Key": "ACHIEVEMENT_CHALLENGE_LV6_DESC",
    "Value": "Finir le Secteur Impasse"
  },
  {
    "Key": "ACHIEVEMENT_CHALLENGE_LV7_NAME",
    "Value": "Défenseur du Bord de l'eau"
  },
  {
    "Key": "ACHIEVEMENT_CHALLENGE_LV7_DESC",
    "Value": "Finir le Secteur Bord de l'eau"
  },
  {
    "Key": "ACHIEVEMENT_CHALLENGE_LV8_NAME",
    "Value": "Défenseur de la Haute Crête"
  },
  {
    "Key": "ACHIEVEMENT_CHALLENGE_LV8_DESC",
    "Value": "Finir le Secteur Haute Crête"
  },
  {
    "Key": "ACHIEVEMENT_CHALLENGE_LV9_NAME",
    "Value": "Défenseur du Détour"
  },
  {
    "Key": "ACHIEVEMENT_CHALLENGE_LV9_DESC",
    "Value": "Finir le Secteur Détour"
  },
  {
    "Key": "ACHIEVEMENT_CHALLENGE_LV10_NAME",
    "Value": "Défenseur de la Baie Rouge"
  },
  {
    "Key": "ACHIEVEMENT_CHALLENGE_LV10_DESC",
    "Value": "Finir le Secteur Baie Rouge"
  },
  {
    "Key": "ACHIEVEMENT_CHALLENGE_LV11_NAME",
    "Value": "Défenseur de Centrale"
  },
  {
    "Key": "ACHIEVEMENT_CHALLENGE_LV11_DESC",
    "Value": "Finir le Secteur Centrale"
  },
  {
    "Key": "ACHIEVEMENT_CHALLENGE_LV12_NAME",
    "Value": "Défenseur du District 21"
  },
  {
    "Key": "ACHIEVEMENT_CHALLENGE_LV12_DESC",
    "Value": "Finir le Secteur District 21"
  },
  {
    "Key": "ACHIEVEMENT_CHALLENGE_LV13_NAME",
    "Value": "Défenseur du Canyon"
  },
  {
    "Key": "ACHIEVEMENT_CHALLENGE_LV13_DESC",
    "Value": "Finir le Secteur Canyon"
  },
  {
    "Key": "ACHIEVEMENT_CHALLENGE_LV14_NAME",
    "Value": "Défenseur de Triangulation"
  },
  {
    "Key": "ACHIEVEMENT_CHALLENGE_LV14_DESC",
    "Value": "Finir le Secteur Triangulation"
  },
  {
    "Key": "ACHIEVEMENT_CHALLENGE_LV15_NAME",
    "Value": "Défenseur d'Araneae"
  },
  {
    "Key": "ACHIEVEMENT_CHALLENGE_LV15_DESC",
    "Value": "Finir le Secteur Araneae"
  },
  {
    "Key": "ACHIEVEMENT_CHALLENGE_LV16_NAME",
    "Value": "Défenseur de Testudo"
  },
  {
    "Key": "ACHIEVEMENT_CHALLENGE_LV16_DESC",
    "Value": "Finir le Secteur Testudo"
  },
  {
    "Key": "ACHIEVEMENT_CHALLENGE_LV17_NAME",
    "Value": "Défenseur de la Citadelle"
  },
  {
    "Key": "ACHIEVEMENT_CHALLENGE_LV17_DESC",
    "Value": "Finir le Secteur Citadelle"
  },
  {
    "Key": "ACHIEVEMENT_CHALLENGE_LV18_NAME",
    "Value": "Défenseur des Tirs Croisés"
  },
  {
    "Key": "ACHIEVEMENT_CHALLENGE_LV18_DESC",
    "Value": "Finir le Secteur Tirs Croisés"
  },
  {
    "Key": "ACHIEVEMENT_CHALLENGE_LV19_NAME",
    "Value": "Défenseur du Pré Carré"
  },
  {
    "Key": "ACHIEVEMENT_CHALLENGE_LV19_DESC",
    "Value": "Finir le Secteur Pré Carré"
  },
  {
    "Key": "ACHIEVEMENT_CHALLENGE_LV20_NAME",
    "Value": "Défenseur de la Rotative"
  },
  {
    "Key": "ACHIEVEMENT_CHALLENGE_LV20_DESC",
    "Value": "Finir le Secteur Rotative"
  },
  {
    "Key": "ACHIEVEMENT_CHALLENGE_LV21_NAME",
    "Value": "Défenseur de la Toile"
  },
  {
    "Key": "ACHIEVEMENT_CHALLENGE_LV21_DESC",
    "Value": "Finir le Secteur Toile"
  },
  {
    "Key": "ACHIEVEMENT_CHALLENGE_LV22_NAME",
    "Value": "Défenseur de la Cité"
  },
  {
    "Key": "ACHIEVEMENT_CHALLENGE_LV22_DESC",
    "Value": "Finir le Secteur Cité"
  },
  {
    "Key": "ACHIEVEMENT_CHALLENGE_LV23_NAME",
    "Value": "Défenseur des Industries"
  },
  {
    "Key": "ACHIEVEMENT_CHALLENGE_LV23_DESC",
    "Value": "Finir le Secteur Industries"
  },
  {
    "Key": "ACHIEVEMENT_CHALLENGE_LV24_NAME",
    "Value": "Défenseur des Champs Mortels"
  },
  {
    "Key": "ACHIEVEMENT_CHALLENGE_LV24_DESC",
    "Value": "Finir le Secteur Champs Mortels"
  },
  {
    "Key": "ACHIEVEMENT_CHALLENGE_LV25_NAME",
    "Value": "Défenseur du Capitole"
  },
  {
    "Key": "ACHIEVEMENT_CHALLENGE_LV25_DESC",
    "Value": "Finir le Secteur Capitole"
  },
  {
    "Key": "ACHIEVEMENT_LAST_STAND_LV1_NAME",
    "Value": "Défenseur Frontal"
  },
  {
    "Key": "ACHIEVEMENT_LAST_STAND_LV1_DESC",
    "Value": "Finir l'Ultime Résistance Frontale"
  },
  {
    "Key": "ACHIEVEMENT_LAST_STAND_LV2_NAME",
    "Value": "Défenseur de la Tenaille"
  },
  {
    "Key": "ACHIEVEMENT_LAST_STAND_LV2_DESC",
    "Value": "Finir l'Ultime Résistance Tenaille"
  },
  {
    "Key": "ACHIEVEMENT_LAST_STAND_LV3_NAME",
    "Value": "Défenseur du Contournement"
  },
  {
    "Key": "ACHIEVEMENT_LAST_STAND_LV3_DESC",
    "Value": "Finir l'Ultime Résistance Contournement"
  },
  {
    "Key": "ACHIEVEMENT_KILL_LV1_NAME",
    "Value": "Combattant"
  },
  {
    "Key": "ACHIEVEMENT_KILL_LV1_DESC",
    "Value": "Faire 10 victimes"
  },
  {
    "Key": "ACHIEVEMENT_KILL_LV2_NAME",
    "Value": "Soldat"
  },
  {
    "Key": "ACHIEVEMENT_KILL_LV2_DESC",
    "Value": "Faire 100 victimes"
  },
  {
    "Key": "ACHIEVEMENT_KILL_LV3_NAME",
    "Value": "Guerrier"
  },
  {
    "Key": "ACHIEVEMENT_KILL_LV3_DESC",
    "Value": "Faire 1000 victimes"
  },
  {
    "Key": "ACHIEVEMENT_KILL_LV4_NAME",
    "Value": "Meurtrier"
  },
  {
    "Key": "ACHIEVEMENT_KILL_LV4_DESC",
    "Value": "Faire 10000 victimes"
  },
  {
    "Key": "MENU_OPTIONS_BUTTON",
    "Value": "RÉGLAGES"
  },
  {
    "Key": "OPTIONS_TAB",
    "Value": "Options"
  },
  {
    "Key": "LANGUAGE_SLIDER",
    "Value": "Langue"
  },
  {
    "Key": "MUSIC_VOLUME_SLIDER",
    "Value": "Volume de la musique"
  },
  {
    "Key": "SOUND_EFFECTS_SLIDER",
    "Value": "Volume des effets sonores"
  },
  {
    "Key": "GRAPHIC_SETTING_TEXT",
    "Value": "Option graphique"
  },
  {
    "Key": "PERFORMANCE_TEXT",
    "Value": "Performance"
  },
  {
    "Key": "QUALITY_TEXT",
    "Value": "Qualité"
  },
  {
    "Key": "CREDITS_BUTTON",
    "Value": "CRÉDITS"
  },
  {
    "Key": "ENGLISH_TEXT",
    "Value": "Anglais"
  },
  {
    "Key": "FRENCH_TEXT",
    "Value": "Français"
  },
  {
    "Key": "DESIGNER_TEXT",
    "Value": "- Designer -"
  },
  {
    "Key": "PROGRAMMER_TEXT",
    "Value": "- Programmeurs -"
  },
  {
    "Key": "ARTIST_TEXT",
    "Value": "- Artiste -"
  },
  {
    "Key": "MARKETING_TEXT",
    "Value": "- Marketing -"
  },
  {
    "Key": "SPECIAL_THANKS_TEXT",
    "Value": "- Remerciements particuliers -"
  },
  {
    "Key": "SOUND_FX_TEXT",
    "Value": "- Effets sonores -"
  },
  {
    "Key": "MUSIC_TEXT",
    "Value": "- Musique -"
  },
  {
    "Key": "ENJOY_TEXT",
    "Value": "Amusez-vous!"
  },
  {
    "Key": "GOOGLE_LOGOUT_TEXT",
    "Value": "Déconnexion Google"
  },
  {
    "Key": "GOOGLE_LOGIN_TEXT",
    "Value": "Connexion Google"
  },
  {
    "Key": "ACHIEVEMENT_AMMO_LV1_NAME",
    "Value": "Provisions"
  },
  {
    "Key": "ACHIEVEMENT_AMMO_LV1_DESC",
    "Value": "Utilisez 10 supports de Munitions"
  },
  {
    "Key": "ACHIEVEMENT_AMMO_LV2_NAME",
    "Value": "Fabriquant d'armes"
  },
  {
    "Key": "ACHIEVEMENT_AMMO_LV2_DESC",
    "Value": "Utilisez 50 supports de Munitions"
  },
  {
    "Key": "ACHIEVEMENT_AMMO_LV3_NAME",
    "Value": "Armurier"
  },
  {
    "Key": "ACHIEVEMENT_AMMO_LV3_DESC",
    "Value": "Utilisez 100 supports de Munitions"
  },
  {
    "Key": "ACHIEVEMENT_AMMO_LV4_NAME",
    "Value": "Maître d'armes"
  },
  {
    "Key": "ACHIEVEMENT_AMMO_LV4_DESC",
    "Value": "Utilisez 500 supports de Munitions"
  },
  {
    "Key": "ACHIEVEMENT_REPAIR_LV1_NAME",
    "Value": "Fixeur"
  },
  {
    "Key": "ACHIEVEMENT_REPAIR_LV1_DESC",
    "Value": "Utilisez 10 supports de Réparation"
  },
  {
    "Key": "ACHIEVEMENT_REPAIR_LV2_NAME",
    "Value": "Réparateur"
  },
  {
    "Key": "ACHIEVEMENT_REPAIR_LV2_DESC",
    "Value": "Utilisez 50 supports de Réparation"
  },
  {
    "Key": "ACHIEVEMENT_REPAIR_LV3_NAME",
    "Value": "Mécano"
  },
  {
    "Key": "ACHIEVEMENT_REPAIR_LV3_DESC",
    "Value": "Utilisez 100 supports de Réparation"
  },
  {
    "Key": "ACHIEVEMENT_REPAIR_LV4_NAME",
    "Value": "Ingénieur"
  },
  {
    "Key": "ACHIEVEMENT_REPAIR_LV4_DESC",
    "Value": "Utilisez 500 supports de Réparation"
  },
  {
    "Key": "ACHIEVEMENT_PULSE_LV1_NAME",
    "Value": "Servant de Radar"
  },
  {
    "Key": "ACHIEVEMENT_PULSE_LV1_DESC",
    "Value": "Utilisez 10 supports d'Impulsion"
  },
  {
    "Key": "ACHIEVEMENT_PULSE_LV2_NAME",
    "Value": "Officer de Communication"
  },
  {
    "Key": "ACHIEVEMENT_PULSE_LV2_DESC",
    "Value": "Utilisez 50 supports d'Impulsion"
  },
  {
    "Key": "ACHIEVEMENT_PULSE_LV3_NAME",
    "Value": "Expert Radar"
  },
  {
    "Key": "ACHIEVEMENT_PULSE_LV3_DESC",
    "Value": "Utilisez 100 supports d'Impulsion"
  },
  {
    "Key": "ACHIEVEMENT_PULSE_LV4_NAME",
    "Value": "Voyant"
  },
  {
    "Key": "ACHIEVEMENT_PULSE_LV4_DESC",
    "Value": "Utilisez 500 supports d'Impulsion"
  },
  {
    "Key": "ACHIEVEMENT_SLOW_LV1_NAME",
    "Value": "Technicien"
  },
  {
    "Key": "ACHIEVEMENT_SLOW_LV1_DESC",
    "Value": "Utilisez 10 supports d'I.E.M"
  },
  {
    "Key": "ACHIEVEMENT_SLOW_LV2_NAME",
    "Value": "Electronicien"
  },
  {
    "Key": "ACHIEVEMENT_SLOW_LV2_DESC",
    "Value": "Utilisez 50 supports d'I.E.M"
  },
  {
    "Key": "ACHIEVEMENT_SLOW_LV3_NAME",
    "Value": "Expert C.D.Force"
  },
  {
    "Key": "ACHIEVEMENT_SLOW_LV3_DESC",
    "Value": "Utilisez 100 supports d'I.E.M"
  },
  {
    "Key": "ACHIEVEMENT_SLOW_LV4_NAME",
    "Value": "Magnétiseur"
  },
  {
    "Key": "ACHIEVEMENT_SLOW_LV4_DESC",
    "Value": "Utilisez 500 supports d'I.E.M"
  },
  {
    "Key": "ACHIEVEMENT_OHSHIT_LV1_NAME",
    "Value": "Défenseur"
  },
  {
    "Key": "ACHIEVEMENT_OHSHIT_LV1_DESC",
    "Value": "Utilisez 10 supports de Missiles Autoguidés"
  },
  {
    "Key": "ACHIEVEMENT_OHSHIT_LV2_NAME",
    "Value": "Sauveur"
  },
  {
    "Key": "ACHIEVEMENT_OHSHIT_LV2_DESC",
    "Value": "Utilisez 50 supports de Missiles Autoguidés"
  },
  {
    "Key": "ACHIEVEMENT_OHSHIT_LV3_NAME",
    "Value": "Gardien"
  },
  {
    "Key": "ACHIEVEMENT_OHSHIT_LV3_DESC",
    "Value": "Utilisez 100 supports de Missiles Autoguidés"
  },
  {
    "Key": "ACHIEVEMENT_OHSHIT_LV4_NAME",
    "Value": "Protecteur"
  },
  {
    "Key": "ACHIEVEMENT_OHSHIT_LV4_DESC",
    "Value": "Utilisez 500 supports de Missiles Autoguidés"
  },
  {
    "Key": "ACHIEVEMENT_INFANTRY_LV1_NAME",
    "Value": "2ième Classe"
  },
  {
    "Key": "ACHIEVEMENT_INFANTRY_LV1_DESC",
    "Value": "Détruire 10 Infantries"
  },
  {
    "Key": "ACHIEVEMENT_INFANTRY_LV2_NAME",
    "Value": "Vétéran"
  },
  {
    "Key": "ACHIEVEMENT_INFANTRY_LV2_DESC",
    "Value": "Détruire 100 Infantries"
  },
  {
    "Key": "ACHIEVEMENT_INFANTRY_LV3_NAME",
    "Value": "Tueur"
  },
  {
    "Key": "ACHIEVEMENT_INFANTRY_LV3_DESC",
    "Value": "Détruire 500 Infantries"
  },
  {
    "Key": "ACHIEVEMENT_INFANTRY_LV4_NAME",
    "Value": "Boucher"
  },
  {
    "Key": "ACHIEVEMENT_INFANTRY_LV4_DESC",
    "Value": "Détruire 2500 Infantries"
  },
  {
    "Key": "ACHIEVEMENT_BUGGY_LV1_NAME",
    "Value": "Inné"
  },
  {
    "Key": "ACHIEVEMENT_BUGGY_LV1_DESC",
    "Value": "Détruire 10 Véhicules d'Assauts Légers"
  },
  {
    "Key": "ACHIEVEMENT_BUGGY_LV2_NAME",
    "Value": "Réflexe"
  },
  {
    "Key": "ACHIEVEMENT_BUGGY_LV2_DESC",
    "Value": "Détruire 100 Véhicules d'Assauts Légers"
  },
  {
    "Key": "ACHIEVEMENT_BUGGY_LV3_NAME",
    "Value": "Instinctif"
  },
  {
    "Key": "ACHIEVEMENT_BUGGY_LV3_DESC",
    "Value": "Détruire 500 Véhicules d'Assauts Légers"
  },
  {
    "Key": "ACHIEVEMENT_BUGGY_LV4_NAME",
    "Value": "Automatique"
  },
  {
    "Key": "ACHIEVEMENT_BUGGY_LV4_DESC",
    "Value": "Détruire 2500 Véhicules d'Assauts Légers"
  },
  {
    "Key": "ACHIEVEMENT_JEEP_LV1_NAME",
    "Value": "Bitume"
  },
  {
    "Key": "ACHIEVEMENT_JEEP_LV1_DESC",
    "Value": "Détruire 10 4x4 Blindés"
  },
  {
    "Key": "ACHIEVEMENT_JEEP_LV2_NAME",
    "Value": "Guerrier de la Route"
  },
  {
    "Key": "ACHIEVEMENT_JEEP_LV2_DESC",
    "Value": "Détruire 100 4x4 Blindés"
  },
  {
    "Key": "ACHIEVEMENT_JEEP_LV3_NAME",
    "Value": "Trop Lent"
  },
  {
    "Key": "ACHIEVEMENT_JEEP_LV3_DESC",
    "Value": "Détruire 500 4x4 Blindés"
  },
  {
    "Key": "ACHIEVEMENT_JEEP_LV4_NAME",
    "Value": "Carambolage"
  },
  {
    "Key": "ACHIEVEMENT_JEEP_LV4_DESC",
    "Value": "Détruire 2500 4x4 Blindés"
  },
  {
    "Key": "ACHIEVEMENT_TANK_LV1_NAME",
    "Value": "Perce-armure"
  },
  {
    "Key": "ACHIEVEMENT_TANK_LV1_DESC",
    "Value": "Détruire 10 Tanks"
  },
  {
    "Key": "ACHIEVEMENT_TANK_LV2_NAME",
    "Value": "Bazooka"
  },
  {
    "Key": "ACHIEVEMENT_TANK_LV2_DESC",
    "Value": "Détruire 100 Tanks"
  },
  {
    "Key": "ACHIEVEMENT_TANK_LV3_NAME",
    "Value": "Briseur"
  },
  {
    "Key": "ACHIEVEMENT_TANK_LV3_DESC",
    "Value": "Détruire 500 Tanks"
  },
  {
    "Key": "ACHIEVEMENT_TANK_LV4_NAME",
    "Value": "Faiseur d'épave"
  },
  {
    "Key": "ACHIEVEMENT_TANK_LV4_DESC",
    "Value": "Détruire 2500 Tanks"
  },
  {
    "Key": "ACHIEVEMENT_HEAVYARMOR_LV1_NAME",
    "Value": "Plieur"
  },
  {
    "Key": "ACHIEVEMENT_HEAVYARMOR_LV1_DESC",
    "Value": "Détruire 10 Tanks Lourds"
  },
  {
    "Key": "ACHIEVEMENT_HEAVYARMOR_LV2_NAME",
    "Value": "Casseur"
  },
  {
    "Key": "ACHIEVEMENT_HEAVYARMOR_LV2_DESC",
    "Value": "Détruire 100 Tanks Lourds"
  },
  {
    "Key": "ACHIEVEMENT_HEAVYARMOR_LV3_NAME",
    "Value": "Broyeur"
  },
  {
    "Key": "ACHIEVEMENT_HEAVYARMOR_LV3_DESC",
    "Value": "Détruire 500 Tanks Lourds"
  },
  {
    "Key": "ACHIEVEMENT_HEAVYARMOR_LV4_NAME",
    "Value": "Fondeur"
  },
  {
    "Key": "ACHIEVEMENT_HEAVYARMOR_LV4_DESC",
    "Value": "Détruire 2500 Tanks Lourds"
  },
  {
    "Key": "ACHIEVEMENT_LAV_LV1_NAME",
    "Value": "Tir aux Pigeons"
  },
  {
    "Key": "ACHIEVEMENT_LAV_LV1_DESC",
    "Value": "Détruire 10 Véhicules Blindés Légers"
  },
  {
    "Key": "ACHIEVEMENT_LAV_LV2_NAME",
    "Value": "Pied à Terre!"
  },
  {
    "Key": "ACHIEVEMENT_LAV_LV2_DESC",
    "Value": "Détruire 100 Véhicules Blindés Légers"
  },
  {
    "Key": "ACHIEVEMENT_LAV_LV3_NAME",
    "Value": "Ouvre-Boite"
  },
  {
    "Key": "ACHIEVEMENT_LAV_LV3_DESC",
    "Value": "Détruire 500 Véhicules Blindés Légers"
  },
  {
    "Key": "ACHIEVEMENT_LAV_LV4_NAME",
    "Value": "Trop Fin"
  },
  {
    "Key": "ACHIEVEMENT_LAV_LV4_DESC",
    "Value": "Détruire 2500 Véhicules Blindés Légers"
  },
  {
    "Key": "ACHIEVEMENT_TRANSPORTER_LV1_NAME",
    "Value": "Touché!"
  },
  {
    "Key": "ACHIEVEMENT_TRANSPORTER_LV1_DESC",
    "Value": "Détruire 10 Cargos"
  },
  {
    "Key": "ACHIEVEMENT_TRANSPORTER_LV2_NAME",
    "Value": "Chute d'approvisionnement"
  },
  {
    "Key": "ACHIEVEMENT_TRANSPORTER_LV2_DESC",
    "Value": "Détruire 100 Cargos"
  },
  {
    "Key": "ACHIEVEMENT_TRANSPORTER_LV3_NAME",
    "Value": "À Moi!"
  },
  {
    "Key": "ACHIEVEMENT_TRANSPORTER_LV3_DESC",
    "Value": "Détruire 500 Cargos"
  },
  {
    "Key": "ACHIEVEMENT_TRANSPORTER_LV4_NAME",
    "Value": "Pluie d'Or"
  },
  {
    "Key": "ACHIEVEMENT_TRANSPORTER_LV4_DESC",
    "Value": "Détruire 2500 Cargos"
  },
  {
    "Key": "ACHIEVEMENT_CONVOY_LV1_NAME",
    "Value": "Nécessiteux"
  },
  {
    "Key": "ACHIEVEMENT_CONVOY_LV1_DESC",
    "Value": "Détruire 10 Convois"
  },
  {
    "Key": "ACHIEVEMENT_CONVOY_LV2_NAME",
    "Value": "Pilleur"
  },
  {
    "Key": "ACHIEVEMENT_CONVOY_LV2_DESC",
    "Value": "Détruire 100 Convois"
  },
  {
    "Key": "ACHIEVEMENT_CONVOY_LV3_NAME",
    "Value": "Cupide"
  },
  {
    "Key": "ACHIEVEMENT_CONVOY_LV3_DESC",
    "Value": "Détruire 500 Convois"
  },
  {
    "Key": "ACHIEVEMENT_CONVOY_LV4_NAME",
    "Value": "Passera pas!"
  },
  {
    "Key": "ACHIEVEMENT_CONVOY_LV4_DESC",
    "Value": "Détruire 2500 Convois"
  },
  {
    "Key": "ACHIEVEMENT_HELICOPTER_LV1_NAME",
    "Value": "Abattez-les!"
  },
  {
    "Key": "ACHIEVEMENT_HELICOPTER_LV1_DESC",
    "Value": "Détruire 10 Hélicoptères"
  },
  {
    "Key": "ACHIEVEMENT_HELICOPTER_LV2_NAME",
    "Value": "Tueur d'Oiseaux"
  },
  {
    "Key": "ACHIEVEMENT_HELICOPTER_LV2_DESC",
    "Value": "Détruire 100 Hélicoptères"
  },
  {
    "Key": "ACHIEVEMENT_HELICOPTER_LV3_NAME",
    "Value": "J'l'ai eu!"
  },
  {
    "Key": "ACHIEVEMENT_HELICOPTER_LV3_DESC",
    "Value": "Détruire 500 Hélicoptères"
  },
  {
    "Key": "ACHIEVEMENT_HELICOPTER_LV4_NAME",
    "Value": "Zone Interdite"
  },
  {
    "Key": "ACHIEVEMENT_HELICOPTER_LV4_DESC",
    "Value": "Détruire 2500 Hélicoptères"
  },
  {
    "Key": "ACHIEVEMENT_FIGHTER_LV1_NAME",
    "Value": "Contrôle Aerien"
  },
  {
    "Key": "ACHIEVEMENT_FIGHTER_LV1_DESC",
    "Value": "Détruire 10 Chasseurs"
  },
  {
    "Key": "ACHIEVEMENT_FIGHTER_LV2_NAME",
    "Value": "Mur d'Acier"
  },
  {
    "Key": "ACHIEVEMENT_FIGHTER_LV2_DESC",
    "Value": "Détruire 100 Chasseurs"
  },
  {
    "Key": "ACHIEVEMENT_FIGHTER_LV3_NAME",
    "Value": "Espace vide"
  },
  {
    "Key": "ACHIEVEMENT_FIGHTER_LV3_DESC",
    "Value": "Détruire 500 Chasseurs"
  },
  {
    "Key": "ACHIEVEMENT_FIGHTER_LV4_NAME",
    "Value": "Suprémacie Aérienne"
  },
  {
    "Key": "ACHIEVEMENT_FIGHTER_LV4_DESC",
    "Value": "Détruire 2500 Chasseurs"
  },
  {
    "Key": "ACHIEVEMENT_BOMBER_LV1_NAME",
    "Value": "Spécialiste AA"
  },
  {
    "Key": "ACHIEVEMENT_BOMBER_LV1_DESC",
    "Value": "Détruire 10 Bombardiers"
  },
  {
    "Key": "ACHIEVEMENT_BOMBER_LV2_NAME",
    "Value": "Officier AA"
  },
  {
    "Key": "ACHIEVEMENT_BOMBER_LV2_DESC",
    "Value": "Détruire 100 Bombardiers"
  },
  {
    "Key": "ACHIEVEMENT_BOMBER_LV3_NAME",
    "Value": "Bouclier Anti-Aérien"
  },
  {
    "Key": "ACHIEVEMENT_BOMBER_LV3_DESC",
    "Value": "Détruire 500 Bombardiers"
  },
  {
    "Key": "ACHIEVEMENT_BOMBER_LV4_NAME",
    "Value": "À l'épreuve des Bombes"
  },
  {
    "Key": "ACHIEVEMENT_BOMBER_LV4_DESC",
    "Value": "Détruire 2500 Bombardiers"
  },
  {
    "Key": "ACHIEVEMENT_BALLISTICMISSILE_LV1_NAME",
    "Value": "Gêneur"
  },
  {
    "Key": "ACHIEVEMENT_BALLISTICMISSILE_LV1_DESC",
    "Value": "Détruire 10 Missiles de Croisière"
  },
  {
    "Key": "ACHIEVEMENT_BALLISTICMISSILE_LV2_NAME",
    "Value": "Obstructeur"
  },
  {
    "Key": "ACHIEVEMENT_BALLISTICMISSILE_LV2_DESC",
    "Value": "Détruire 100 Missiles de Croisière"
  },
  {
    "Key": "ACHIEVEMENT_BALLISTICMISSILE_LV3_NAME",
    "Value": "Intercepteur"
  },
  {
    "Key": "ACHIEVEMENT_BALLISTICMISSILE_LV3_DESC",
    "Value": "Détruire 500 Missiles de Croisière"
  },
  {
    "Key": "ACHIEVEMENT_BALLISTICMISSILE_LV4_NAME",
    "Value": "Maître de l'Air"
  },
  {
    "Key": "ACHIEVEMENT_BALLISTICMISSILE_LV4_DESC",
    "Value": "Détruire 2500 Missiles de Croisière"
  },
  {
    "Key": "ACHIEVEMENT_ASSAULTHELICOPTER_LV1_NAME",
    "Value": "Bloqueur"
  },
  {
    "Key": "ACHIEVEMENT_ASSAULTHELICOPTER_LV1_DESC",
    "Value": "Détruire 10 Hélicoptères d'Attaque"
  },
  {
    "Key": "ACHIEVEMENT_ASSAULTHELICOPTER_LV2_NAME",
    "Value": "Banisseur"
  },
  {
    "Key": "ACHIEVEMENT_ASSAULTHELICOPTER_LV2_DESC",
    "Value": "Détruire 100 Hélicoptères d'Attaque"
  },
  {
    "Key": "ACHIEVEMENT_ASSAULTHELICOPTER_LV3_NAME",
    "Value": "Punisseur"
  },
  {
    "Key": "ACHIEVEMENT_ASSAULTHELICOPTER_LV3_DESC",
    "Value": "Détruire 500 Hélicoptères d'Attaque"
  },
  {
    "Key": "ACHIEVEMENT_ASSAULTHELICOPTER_LV4_NAME",
    "Value": "Contre-Attaque"
  },
  {
    "Key": "ACHIEVEMENT_ASSAULTHELICOPTER_LV4_DESC",
    "Value": "Détruire 2500 Hélicoptères d'Attaque"
  },
  {
    "Key": "ACHIEVEMENT_DRONE_LV1_NAME",
    "Value": "Chasseur de Drone"
  },
  {
    "Key": "ACHIEVEMENT_DRONE_LV1_DESC",
    "Value": "Détruire 10 Drones"
  },
  {
    "Key": "ACHIEVEMENT_DRONE_LV2_NAME",
    "Value": "Destructeur de Machine"
  },
  {
    "Key": "ACHIEVEMENT_DRONE_LV2_DESC",
    "Value": "Détruire 100 Drones"
  },
  {
    "Key": "ACHIEVEMENT_DRONE_LV3_NAME",
    "Value": "Écraseur de Robot"
  },
  {
    "Key": "ACHIEVEMENT_DRONE_LV3_DESC",
    "Value": "Détruire 500 Drones"
  },
  {
    "Key": "ACHIEVEMENT_DRONE_LV4_NAME",
    "Value": "Puissance Humaine"
  },
  {
    "Key": "ACHIEVEMENT_DRONE_LV4_DESC",
    "Value": "Détruire 2500 Drones"
  },
  {
    "Key": "ACHIEVEMENT_SHOTS_LV1_NAME",
    "Value": "Tireur"
  },
  {
    "Key": "ACHIEVEMENT_SHOTS_LV1_DESC",
    "Value": "10 Tirs Effectués"
  },
  {
    "Key": "ACHIEVEMENT_SHOTS_LV2_NAME",
    "Value": "Artilleur"
  },
  {
    "Key": "ACHIEVEMENT_SHOTS_LV2_DESC",
    "Value": "100 Tirs Effectués"
  },
  {
    "Key": "ACHIEVEMENT_SHOTS_LV3_NAME",
    "Value": "Tireur d'Elite"
  },
  {
    "Key": "ACHIEVEMENT_SHOTS_LV3_DESC",
    "Value": "1000 Tirs Effectués"
  },
  {
    "Key": "ACHIEVEMENT_SHOTS_LV4_NAME",
    "Value": "Gunho!"
  },
  {
    "Key": "ACHIEVEMENT_SHOTS_LV4_DESC",
    "Value": "10000 Tirs Effectués"
  },
  {
    "Key": "ACHIEVEMENT_STACKREPAIR_LV1_NAME",
    "Value": "Boîte à Outil"
  },
  {
    "Key": "ACHIEVEMENT_STACKREPAIR_LV1_DESC",
    "Value": "Stocker 99 supports de Réparation"
  },
  {
    "Key": "ACHIEVEMENT_STACKPULSE_LV1_NAME",
    "Value": "Bip Bip"
  },
  {
    "Key": "ACHIEVEMENT_STACKPULSE_LV1_DESC",
    "Value": "Stocker 99 supports d'Impulsion"
  },
  {
    "Key": "ACHIEVEMENT_STACKAMMO_LV1_NAME",
    "Value": "Trafiquant d'Armes"
  },
  {
    "Key": "ACHIEVEMENT_STACKAMMO_LV1_DESC",
    "Value": "Stocker 99 supports de Munition"
  },
  {
    "Key": "ACHIEVEMENT_STACKSLOW_LV1_NAME",
    "Value": "Magnetons"
  },
  {
    "Key": "ACHIEVEMENT_STACKSLOW_LV1_DESC",
    "Value": "Stocker 99 Supports d'I.E.M"
  },
  {
    "Key": "ACHIEVEMENT_STACKOHSHIT_LV1_NAME",
    "Value": "Para Bellum"
  },
  {
    "Key": "ACHIEVEMENT_STACKOHSHIT_LV1_DESC",
    "Value": "Stocker 99 supports de Missiles AutoGuidés"
  },
  {
    "Key": "ACHIEVEMENT_WAVE_LV1_NAME",
    "Value": "Solide"
  },
  {
    "Key": "ACHIEVEMENT_WAVE_LV1_DESC",
    "Value": "Compléter 10 Vagues"
  },
  {
    "Key": "ACHIEVEMENT_WAVE_LV2_NAME",
    "Value": "Résilient"
  },
  {
    "Key": "ACHIEVEMENT_WAVE_LV2_DESC",
    "Value": "Compléter 100 Vagues"
  },
  {
    "Key": "ACHIEVEMENT_WAVE_LV3_NAME",
    "Value": "Roc"
  },
  {
    "Key": "ACHIEVEMENT_WAVE_LV3_DESC",
    "Value": "Compléter 500 Vagues"
  },
  {
    "Key": "ACHIEVEMENT_WAVE_LV4_NAME",
    "Value": "Homme d'Acier"
  },
  {
    "Key": "ACHIEVEMENT_WAVE_LV4_DESC",
    "Value": "Compléter 2500 Vagues"
  },
  {
    "Key": "DAILY_PACK_NAME_1",
    "Value": "Pack de Crédits"
  },
  {
    "Key": "DAILY_PACK_NAME_2",
    "Value": "Pack d'Or"
  },
  {
    "Key": "DAILY_PACK_NAME_3",
    "Value": "Pack d'Approvisionnement"
  },
  {
    "Key": "WATCH_AD_TEXT",
    "Value": "PRENDRE"
  },
  {
    "Key": "UNLOCK_LVL_TEXT",
    "Value": "Débloquer au Secteur"
  },
  {
    "Key": "WEAPON_MAX_LVL_TEXT",
    "Value": "Amélioration d'arme Max\nNiveau"
  },
  {
    "Key": "GET_ONE_MORE",
    "Value": "Un de plus!"
  },
  {
    "Key": "LOADING_TEXT",
    "Value": "Chargement..."
  },
  {
    "Key": "WEAPON_POSITION_NAME",
    "Value": "Position de l'arme"
  },
  {
    "Key": "QUALITY_SETTING_TEXT",
    "Value": "Qualité"
  },
  {
    "Key": "PERFORMANCE_SETTING_TEXT",
    "Value": "Performances"
  },
  {
    "Key": "ALERT_ECM_TEXT",
    "Value": "BROUILLAGE RADAR DÉTECTÉ"
  },
  {
    "Key": "ALERT_SHIELD_TEXT",
    "Value": "BOUCLIER MAGNETIQUE DÉTECTÉ"
  },
  {
    "Key": "ALERT_REPAIR_TEXT",
    "Value": "SYSTÈME DE RÉPARATION DÉTECTÉ"
  },
  {
    "Key": "BOSS_MOBILE_AIR_ECM_NAME",
    "Value": "AWACS"
  },
  {
    "Key": "ENEMY_MOBILE_GROUND_ECM_NAME",
    "Value": "C.M.E Mobile"
  },
  {
    "Key": "ENEMY_MOBILE_MAINTENANCE_NAME",
    "Value": "Maintenance"
  },
  {
    "Key": "ENEMY_MOBILE_SHIELD_NAME",
    "Value": "Bouclier Mobile"
  },
  {
    "Key": "BOSS_PARATROOPER_PLANE_NAME",
    "Value": "Transporteur"
  },
  {
    "Key": "BOSS_TACTICAL_BOMBER_NAME",
    "Value": "B.Tactique"
  },
  {
    "Key": "ENEMY_PARATROOPER_NAME",
    "Value": "Parachutiste"
  },
  {
    "Key": "ENEMY_PARATROOPER_INFANTRY_NAME",
    "Value": "Commando Para."
  },
  {
    "Key": "NOT_AVAILABLE_WATCH_AD_TEXT",
    "Value": "Indisponible"
  },
  {
    "Key": "ENEMY_OFFROAD_BUGGY_NAME",
    "Value": "V.P.D"
  },
  {
    "Key": "ENEMY_UCAV_DRONE_NAME",
    "Value": "U.C.A.V"
  },
  {
    "Key": "APPLE_LOGIN_TEXT",
    "Value": "Connexion Apple"
  },
  {
    "Key": "CHALLENGE_OPERATION1_NAME",
    "Value": "Cornered"
  },
  {
    "Key": "CHALLENGE_OPERATION2_NAME",
    "Value": "Center Target"
  },
  {
    "Key": "CHALLENGE_OPERATION3_NAME",
    "Value": "Diamond"
  },
  {
    "Key": "CHALLENGE_OPERATION4_NAME",
    "Value": "Lined Up"
  },
  {
    "Key": "CHALLENGE_OPERATION5_NAME",
    "Value": "Stars Are Bright"
  },
  {
    "Key": "DAILY_FREE_PACK_NAME_1",
    "Value": "Supports Journalier"
  },
  {
    "Key": "LASTSTAND_POPUP_TITLE",
    "Value": "INFORMATION ULTIME RÉSISTANCE"
  },
  {
    "Key": "LASTSTAND_POPUP_GP_DESC",
    "Value": "Vous n'êtes pas connecté au service Google Play. Votre score ne sera pas enregistré."
  },
  {
    "Key": "LASTSTAND_POPUP_GC_DESC",
    "Value": "Vous n'êtes pas connecté au service Apple Game Center. Votre score ne sera pas enregistré."
  },
  {
    "Key": "SAVE_INFO_DESC",
    "Value": " "
  },
  {
    "Key": "NORMAL_TEXT",
    "Value": "Normal"
  },
  {
    "Key": "DRAG_AND_RELEASE_SETTING_TEXT",
    "Value": "Mode Glisser-Lacher"
  },
  {
    "Key": "ENABLE_DRAG_AND_RELEASE_TEXT",
    "Value": "Activer Le Mode Glisser-Lacher"
  },
  {
    "Key": "BOOSTER_PACK_NAME_1",
    "Value": "Booster de Crédits"
  },
  {
    "Key": "BOOSTER_PACK_NAME_2",
    "Value": "Booster d'Attaque"
  },
  {
    "Key": "BOOSTER_PACK_NAME_3",
    "Value": "Booster de Défense"
  },
  {
    "Key": "BOOSTER_PACK_NAME_4",
    "Value": "Booster de CréditsSupérieur"
  },
  {
    "Key": "BOOSTER_PACK_NAME_5",
    "Value": "Booster d'Attaque Supérieur"
  },
  {
    "Key": "BOOSTER_PACK_NAME_6",
    "Value": "Booster de Défense Supérieur"
  },
  {
    "Key": "BOOSTER_PACK_DESC_1",
    "Value": "Gain de crédits des matchs à 150%"
  },
  {
    "Key": "BOOSTER_PACK_DESC_2",
    "Value": "Paramètres d'attaque des armes à 150%"
  },
  {
    "Key": "BOOSTER_PACK_DESC_3",
    "Value": "Paramètres de défense des armes à 150%"
  },
  {
    "Key": "DAILY_MISSION_TEXT",
    "Value": "Quotidien"
  },
  {
    "Key": "FREE_PACK_FACEBOOK",
    "Value": "Aimez nous!"
  },
  {
    "Key": "FREE_PACK_TWITTER",
    "Value": "Suivez nous!"
  },
  {
    "Key": "FREE_PACK_REVIEW",
    "Value": "Donnez votre avis!"
  },
  {
    "Key": "USED_TEXT",
    "Value": "UTILISE"
  },
  {
    "Key": "DAILY_BONUS_TEXT",
    "Value": "Bonus Jourmalier"
  },
  {
    "Key": "QUIT_TEXT",
    "Value": "Quitter"
  },
  {
    "Key": "QUIT_GAME_TITLE",
    "Value": "Quitter le jeu?"
  },
  {
    "Key": "QUIT_GAME_DESC",
    "Value": "Voulez vous vraiment quitter le jeu ?"
  },
  {
    "Key": "HINT_1",
    "Value": "Améliorez vos armes régulièrement ! Les missions seront plus faciles !"
  },
  {
    "Key": "HINT_2",
    "Value": "Obtenez régulièrement des crédits, de l’or et des cartes supplémentaires !"
  },
  {
    "Key": "HINT_3",
    "Value": "Ne manquez pas le pack journalier de supports GRATUIT !"
  },
  {
    "Key": "HINT_4",
    "Value": "Les missions quotidiennes donnent beaucoup de crédits supplémentaires !"
  },
  {
    "Key": "HINT_5",
    "Value": "Le booster de crédits augmente la récompense de crédit de match de 50%"
  },
  {
    "Key": "HINT_6",
    "Value": "Le booster d’attaque augmente les paramètres offensifs de toutes les armes de 50%"
  },
  {
    "Key": "HINT_7",
    "Value": "Le booster de défense augmente les paramètres défensifs de toutes les armes de 50%"
  },
  {
    "Key": "HINT_8",
    "Value": "Si vous manquez de supports durant une bataille, vous pouvez en acheter un de plus par catégorie de support ou regarder une publicité."
  },
  {
    "Key": "HINT_9",
    "Value": "Jouez Ultime Défense, gagnez des récompenses importantes et inscrivez votre meilleur score dans le classement."
  },
  {
    "Key": "HINT_10",
    "Value": "Aimez-nous sur Facebook, suivez-nous sur Twitter et donnez votre avis sur le jeu."
  }
]