%YAML 1.1
%TAG !u! tag:unity3d.com,2011:
--- !u!114 &11400000
MonoBehaviour:
  m_ObjectHideFlags: 0
  m_PrefabParentObject: {fileID: 0}
  m_PrefabInternal: {fileID: 0}
  m_GameObject: {fileID: 0}
  m_Enabled: 1
  m_EditorHideFlags: 0
  m_Script: {fileID: 11500000, guid: 1387f6bb75316c240852b30eb7fcbce8, type: 3}
  m_Name: PackCredit2
  m_EditorClassIdentifier: 
  packNameID: PACK_CREDIT2_NAME
  packOrder: 1
  packType: 0
  packImage: {fileID: 0}
  packPrice: 1000
  currencyType: 1
  packRewardData: {fileID: 11400000, guid: cb8ffead85f892f4a8ac6e41ec04f7f1, type: 2}
  packRewardAmount: 1
  productData: {fileID: 0}
