%YAML 1.1
%TAG !u! tag:unity3d.com,2011:
--- !u!74 &7400000
AnimationClip:
  m_ObjectHideFlags: 0
  m_PrefabParentObject: {fileID: 0}
  m_PrefabInternal: {fileID: 0}
  m_Name: SightRadiusRotation
  serializedVersion: 6
  m_Legacy: 1
  m_Compressed: 0
  m_UseHighQualityCurve: 1
  m_RotationCurves:
  - curve:
      serializedVersion: 2
      m_Curve:
      - time: 0
        value: {x: -0, y: -0, z: -0.00087252446, w: 0.99999964}
        inSlope: {x: 0, y: 0, z: -0.10464032, w: -0.0028307438}
        outSlope: {x: 0, y: 0, z: -0.10464032, w: -0.0028307438}
        tangentMode: 0
      - time: 0.5
        value: {x: -0, y: -0, z: -0.053192683, w: 0.9985843}
        inSlope: {x: 0, y: 0, z: -0.10449484, w: -0.005566299}
        outSlope: {x: 0, y: 0, z: -0.10449484, w: -0.005566299}
        tangentMode: 0
      - time: 1
        value: {x: -0, y: -0, z: -0.10536736, w: 0.99443334}
        inSlope: {x: 0, y: 0, z: -0.10406024, w: -0.011025906}
        outSlope: {x: 0, y: 0, z: -0.10406024, w: -0.011025906}
        tangentMode: 0
      - time: 1.5
        value: {x: -0, y: -0, z: -0.15725292, w: 0.98755836}
        inSlope: {x: 0, y: 0, z: -0.10334082, w: -0.016455352}
        outSlope: {x: 0, y: 0, z: -0.10334082, w: -0.016455352}
        tangentMode: 0
      - time: 2
        value: {x: -0, y: -0, z: -0.20870818, w: 0.977978}
        inSlope: {x: 0, y: 0, z: -0.10233854, w: -0.021839857}
        outSlope: {x: 0, y: 0, z: -0.10233854, w: -0.021839857}
        tangentMode: 0
      - time: 2.5
        value: {x: -0, y: -0, z: -0.25959146, w: 0.9657185}
        inSlope: {x: 0, y: 0, z: -0.10105543, w: -0.0271644}
        outSlope: {x: 0, y: 0, z: -0.10105543, w: -0.0271644}
        tangentMode: 0
      - time: 3
        value: {x: -0, y: -0, z: -0.3097636, w: 0.9508136}
        inSlope: {x: 0, y: 0, z: -0.09949598, w: -0.032414556}
        outSlope: {x: 0, y: 0, z: -0.09949598, w: -0.032414556}
        tangentMode: 0
      - time: 3.5
        value: {x: -0, y: -0, z: -0.35908744, w: 0.93330395}
        inSlope: {x: 0, y: 0, z: -0.09766373, w: -0.03757596}
        outSlope: {x: 0, y: 0, z: -0.09766373, w: -0.03757596}
        tangentMode: 0
      - time: 4
        value: {x: -0, y: -0, z: -0.40742734, w: 0.91323763}
        inSlope: {x: 0, y: 0, z: -0.09556392, w: -0.042634428}
        outSlope: {x: 0, y: 0, z: -0.09556392, w: -0.042634428}
        tangentMode: 0
      - time: 4.5
        value: {x: -0, y: -0, z: -0.45465136, w: 0.8906695}
        inSlope: {x: 0, y: 0, z: -0.093202144, w: -0.04757595}
        outSlope: {x: 0, y: 0, z: -0.093202144, w: -0.04757595}
        tangentMode: 0
      - time: 5
        value: {x: -0, y: -0, z: -0.5006295, w: 0.8656617}
        inSlope: {x: 0, y: 0, z: -0.09058517, w: -0.052387297}
        outSlope: {x: 0, y: 0, z: -0.09058517, w: -0.052387297}
        tangentMode: 0
      - time: 5.5
        value: {x: -0, y: -0, z: -0.5452365, w: 0.8382822}
        inSlope: {x: 0, y: 0, z: -0.087720335, w: -0.057055175}
        outSlope: {x: 0, y: 0, z: -0.087720335, w: -0.057055175}
        tangentMode: 0
      - time: 6
        value: {x: -0, y: -0, z: -0.5883498, w: 0.8086065}
        inSlope: {x: 0, y: 0, z: -0.08461481, w: -0.06156653}
        outSlope: {x: 0, y: 0, z: -0.08461481, w: -0.06156653}
        tangentMode: 0
      - time: 6.5
        value: {x: -0, y: -0, z: -0.62985134, w: 0.7767157}
        inSlope: {x: 0, y: 0, z: -0.08127785, w: -0.065909505}
        outSlope: {x: 0, y: 0, z: -0.08127785, w: -0.065909505}
        tangentMode: 0
      - time: 7
        value: {x: -0, y: -0, z: -0.66962767, w: 0.742697}
        inSlope: {x: 0, y: 0, z: -0.07771808, w: -0.07007182}
        outSlope: {x: 0, y: 0, z: -0.07771808, w: -0.07007182}
        tangentMode: 0
      - time: 7.5
        value: {x: -0, y: -0, z: -0.7075694, w: 0.7066439}
        inSlope: {x: 0, y: 0, z: -0.073944986, w: -0.07404184}
        outSlope: {x: 0, y: 0, z: -0.073944986, w: -0.07404184}
        tangentMode: 0
      - time: 8
        value: {x: -0, y: -0, z: -0.74357265, w: 0.66865516}
        inSlope: {x: 0, y: 0, z: -0.06996989, w: -0.07780951}
        outSlope: {x: 0, y: 0, z: -0.06996989, w: -0.07780951}
        tangentMode: 0
      - time: 8.5
        value: {x: -0, y: -0, z: -0.7775393, w: 0.62883437}
        inSlope: {x: 0, y: 0, z: -0.06580311, w: -0.081364036}
        outSlope: {x: 0, y: 0, z: -0.06580311, w: -0.081364036}
        tangentMode: 0
      - time: 9
        value: {x: -0, y: -0, z: -0.80937576, w: 0.5872911}
        inSlope: {x: 0, y: 0, z: -0.061455846, w: -0.08469552}
        outSlope: {x: 0, y: 0, z: -0.061455846, w: -0.08469552}
        tangentMode: 0
      - time: 9.5
        value: {x: -0, y: -0, z: -0.83899516, w: 0.54413885}
        inSlope: {x: 0, y: 0, z: -0.056940317, w: -0.08779496}
        outSlope: {x: 0, y: 0, z: -0.056940317, w: -0.08779496}
        tangentMode: 0
      - time: 10
        value: {x: -0, y: -0, z: -0.8663161, w: 0.49949616}
        inSlope: {x: 0, y: 0, z: -0.052268684, w: -0.09065369}
        outSlope: {x: 0, y: 0, z: -0.052268684, w: -0.09065369}
        tangentMode: 0
      - time: 10.5
        value: {x: -0, y: -0, z: -0.89126384, w: 0.45348516}
        inSlope: {x: 0, y: 0, z: -0.047454, w: -0.0932644}
        outSlope: {x: 0, y: 0, z: -0.047454, w: -0.0932644}
        tangentMode: 0
      - time: 11
        value: {x: -0, y: -0, z: -0.9137701, w: 0.40623176}
        inSlope: {x: 0, y: 0, z: -0.042509317, w: -0.09561965}
        outSlope: {x: 0, y: 0, z: -0.042509317, w: -0.09561965}
        tangentMode: 0
      - time: 11.5
        value: {x: -0, y: -0, z: -0.93377316, w: 0.3578655}
        inSlope: {x: 0, y: 0, z: -0.03744811, w: -0.097712815}
        outSlope: {x: 0, y: 0, z: -0.03744811, w: -0.097712815}
        tangentMode: 0
      - time: 12
        value: {x: -0, y: -0, z: -0.9512182, w: 0.30851895}
        inSlope: {x: 0, y: 0, z: -0.03228426, w: -0.09953809}
        outSlope: {x: 0, y: 0, z: -0.03228426, w: -0.09953809}
        tangentMode: 0
      - time: 12.5
        value: {x: -0, y: -0, z: -0.9660574, w: 0.25832742}
        inSlope: {x: 0, y: 0, z: -0.027032077, w: -0.10109091}
        outSlope: {x: 0, y: 0, z: -0.027032077, w: -0.10109091}
        tangentMode: 0
      - time: 13
        value: {x: -0, y: -0, z: -0.97825027, w: 0.20742804}
        inSlope: {x: 0, y: 0, z: -0.021705866, w: -0.10236701}
        outSlope: {x: 0, y: 0, z: -0.021705866, w: -0.10236701}
        tangentMode: 0
      - time: 13.5
        value: {x: -0, y: -0, z: -0.9877633, w: 0.15596041}
        inSlope: {x: 0, y: 0, z: -0.016320169, w: -0.10336238}
        outSlope: {x: 0, y: 0, z: -0.016320169, w: -0.10336238}
        tangentMode: 0
      - time: 14
        value: {x: -0, y: -0, z: -0.99457043, w: 0.10406566}
        inSlope: {x: 0, y: 0, z: -0.010889769, w: -0.1040747}
        outSlope: {x: 0, y: 0, z: -0.010889769, w: -0.1040747}
        tangentMode: 0
      - time: 14.5
        value: {x: -0, y: -0, z: -0.99865305, w: 0.051885705}
        inSlope: {x: 0, y: 0, z: -0.0054294467, w: -0.10450192}
        outSlope: {x: 0, y: 0, z: -0.0054294467, w: -0.10450192}
        tangentMode: 0
      - time: 15
        value: {x: -0, y: -0, z: -0.9999999, w: -0.0004362623}
        inSlope: {x: 0, y: 0, z: 0.000045657158, w: -0.10464286}
        outSlope: {x: 0, y: 0, z: 0.000045657158, w: -0.10464286}
        tangentMode: 0
      - time: 15.5
        value: {x: -0, y: -0, z: -0.9986074, w: -0.052757155}
        inSlope: {x: 0, y: 0, z: 0.005520642, w: -0.10449714}
        outSlope: {x: 0, y: 0, z: 0.005520642, w: -0.10449714}
        tangentMode: 0
      - time: 16
        value: {x: -0, y: -0, z: -0.99447924, w: -0.1049334}
        inSlope: {x: 0, y: 0, z: 0.0109805465, w: -0.10406515}
        outSlope: {x: 0, y: 0, z: 0.0109805465, w: -0.10406515}
        tangentMode: 0
      - time: 16.5
        value: {x: -0, y: -0, z: -0.98762685, w: -0.15682231}
        inSlope: {x: 0, y: 0, z: 0.01641035, w: -0.10334822}
        outSlope: {x: 0, y: 0, z: 0.01641035, w: -0.10334822}
        tangentMode: 0
      - time: 17
        value: {x: -0, y: -0, z: -0.9780689, w: -0.20828162}
        inSlope: {x: 0, y: 0, z: 0.021795154, w: -0.102347836}
        outSlope: {x: 0, y: 0, z: 0.021795154, w: -0.102347836}
        tangentMode: 0
      - time: 17.5
        value: {x: -0, y: -0, z: -0.9658317, w: -0.25917014}
        inSlope: {x: 0, y: 0, z: 0.027120292, w: -0.10106729}
        outSlope: {x: 0, y: 0, z: 0.027120292, w: -0.10106729}
        tangentMode: 0
      - time: 18
        value: {x: -0, y: -0, z: -0.9509486, w: -0.3093489}
        inSlope: {x: 0, y: 0, z: 0.032371223, w: -0.0995101}
        outSlope: {x: 0, y: 0, z: 0.032371223, w: -0.0995101}
        tangentMode: 0
      - time: 18.5
        value: {x: -0, y: -0, z: -0.9334605, w: -0.35868025}
        inSlope: {x: 0, y: 0, z: 0.037533343, w: -0.09768009}
        outSlope: {x: 0, y: 0, z: 0.037533343, w: -0.09768009}
        tangentMode: 0
      - time: 19
        value: {x: -0, y: -0, z: -0.91341525, w: -0.407029}
        inSlope: {x: 0, y: 0, z: 0.042592645, w: -0.095582396}
        outSlope: {x: 0, y: 0, z: 0.042592645, w: -0.095582396}
        tangentMode: 0
      - time: 19.5
        value: {x: -0, y: -0, z: -0.8908678, w: -0.45426264}
        inSlope: {x: 0, y: 0, z: 0.0475353, w: -0.09322283}
        outSlope: {x: 0, y: 0, z: 0.0475353, w: -0.09322283}
        tangentMode: 0
      - time: 20
        value: {x: -0, y: -0, z: -0.86587995, w: -0.5002518}
        inSlope: {x: 0, y: 0, z: 0.05234778, w: -0.09060809}
        outSlope: {x: 0, y: 0, z: 0.05234778, w: -0.09060809}
        tangentMode: 0
      - time: 20.5
        value: {x: -0, y: -0, z: -0.83852005, w: -0.54487073}
        inSlope: {x: 0, y: 0, z: 0.05701685, w: -0.08774519}
        outSlope: {x: 0, y: 0, z: 0.05701685, w: -0.08774519}
        tangentMode: 0
      - time: 21
        value: {x: -0, y: -0, z: -0.8088631, w: -0.587997}
        inSlope: {x: 0, y: 0, z: 0.061529636, w: -0.084641695}
        outSlope: {x: 0, y: 0, z: 0.061529636, w: -0.084641695}
        tangentMode: 0
      - time: 21.5
        value: {x: -0, y: -0, z: -0.7769904, w: -0.6295124}
        inSlope: {x: 0, y: 0, z: 0.06587404, w: -0.08130658}
        outSlope: {x: 0, y: 0, z: 0.06587404, w: -0.08130658}
        tangentMode: 0
      - time: 22
        value: {x: -0, y: -0, z: -0.74298906, w: -0.6693036}
        inSlope: {x: 0, y: 0, z: 0.0700379, w: -0.0777486}
        outSlope: {x: 0, y: 0, z: 0.0700379, w: -0.0777486}
        tangentMode: 0
      - time: 22.5
        value: {x: -0, y: -0, z: -0.7069525, w: -0.707261}
        inSlope: {x: 0, y: 0, z: 0.074009836, w: -0.07397753}
        outSlope: {x: 0, y: 0, z: 0.074009836, w: -0.07397753}
        tangentMode: 0
      - time: 23
        value: {x: -0, y: -0, z: -0.6689792, w: -0.7432811}
        inSlope: {x: 0, y: 0, z: 0.077779114, w: -0.07000393}
        outSlope: {x: 0, y: 0, z: 0.077779114, w: -0.07000393}
        tangentMode: 0
      - time: 23.5
        value: {x: -0, y: -0, z: -0.6291734, w: -0.77726495}
        inSlope: {x: 0, y: 0, z: 0.081335306, w: -0.065838516}
        outSlope: {x: 0, y: 0, z: 0.081335306, w: -0.065838516}
        tangentMode: 0
      - time: 24
        value: {x: -0, y: -0, z: -0.5876439, w: -0.80911964}
        inSlope: {x: 0, y: 0, z: 0.08466864, w: -0.0614928}
        outSlope: {x: 0, y: 0, z: 0.08466864, w: -0.0614928}
        tangentMode: 0
      - time: 24.5
        value: {x: -0, y: -0, z: -0.54450476, w: -0.83875775}
        inSlope: {x: 0, y: 0, z: 0.087769866, w: -0.056978464}
        outSlope: {x: 0, y: 0, z: 0.087769866, w: -0.056978464}
        tangentMode: 0
      - time: 25
        value: {x: -0, y: -0, z: -0.49987406, w: -0.8660981}
        inSlope: {x: 0, y: 0, z: 0.09063101, w: -0.05230826}
        outSlope: {x: 0, y: 0, z: 0.09063101, w: -0.05230826}
        tangentMode: 0
      - time: 25.5
        value: {x: -0, y: -0, z: -0.45387375, w: -0.891066}
        inSlope: {x: 0, y: 0, z: 0.09324375, w: -0.04749471}
        outSlope: {x: 0, y: 0, z: 0.09324375, w: -0.04749471}
        tangentMode: 0
      - time: 26
        value: {x: -0, y: -0, z: -0.4066303, w: -0.9135928}
        inSlope: {x: 0, y: 0, z: 0.09560102, w: -0.04255098}
        outSlope: {x: 0, y: 0, z: 0.09560102, w: -0.04255098}
        tangentMode: 0
      - time: 26.5
        value: {x: -0, y: -0, z: -0.35827273, w: -0.933617}
        inSlope: {x: 0, y: 0, z: 0.097696394, w: -0.037490666}
        outSlope: {x: 0, y: 0, z: 0.097696394, w: -0.037490666}
        tangentMode: 0
      - time: 27
        value: {x: -0, y: -0, z: -0.3089339, w: -0.9510835}
        inSlope: {x: 0, y: 0, z: 0.09952393, w: -0.032327652}
        outSlope: {x: 0, y: 0, z: 0.09952393, w: -0.032327652}
        tangentMode: 0
      - time: 27.5
        value: {x: -0, y: -0, z: -0.2587488, w: -0.96594465}
        inSlope: {x: 0, y: 0, z: 0.101079285, w: -0.027076244}
        outSlope: {x: 0, y: 0, z: 0.101079285, w: -0.027076244}
        tangentMode: 0
      - time: 28
        value: {x: -0, y: -0, z: -0.20785463, w: -0.9781597}
        inSlope: {x: 0, y: 0, z: 0.10235746, w: -0.02175051}
        outSlope: {x: 0, y: 0, z: 0.10235746, w: -0.02175051}
        tangentMode: 0
      - time: 28.5
        value: {x: -0, y: -0, z: -0.15639134, w: -0.98769516}
        inSlope: {x: 0, y: 0, z: 0.103355296, w: -0.01636523}
        outSlope: {x: 0, y: 0, z: 0.103355296, w: -0.01636523}
        tangentMode: 0
      - time: 29
        value: {x: -0, y: -0, z: -0.10449933, w: -0.99452496}
        inSlope: {x: 0, y: 0, z: 0.10407001, w: -0.010935128}
        outSlope: {x: 0, y: 0, z: 0.10407001, w: -0.010935128}
        tangentMode: 0
      - time: 29.5
        value: {x: -0, y: -0, z: -0.05232133, w: -0.9986303}
        inSlope: {x: 0, y: 0, z: 0.10449933, w: -0.0054750443}
        outSlope: {x: 0, y: 0, z: 0.10449933, w: -0.0054750443}
        tangentMode: 0
      - time: 30
        value: {x: -0, y: -0, z: -0, w: -1}
        inSlope: {x: 0, y: 0, z: 0.10464266, w: -0.0027394295}
        outSlope: {x: 0, y: 0, z: 0.10464266, w: -0.0027394295}
        tangentMode: 0
      m_PreInfinity: 2
      m_PostInfinity: 2
      m_RotationOrder: 4
    path: 
  m_CompressedRotationCurves: []
  m_EulerCurves: []
  m_PositionCurves: []
  m_ScaleCurves: []
  m_FloatCurves: []
  m_PPtrCurves: []
  m_SampleRate: 2
  m_WrapMode: 2
  m_Bounds:
    m_Center: {x: 0, y: 0, z: 0}
    m_Extent: {x: 0, y: 0, z: 0}
  m_ClipBindingConstant:
    genericBindings: []
    pptrCurveMapping: []
  m_AnimationClipSettings:
    serializedVersion: 2
    m_AdditiveReferencePoseClip: {fileID: 0}
    m_AdditiveReferencePoseTime: 0
    m_StartTime: 0
    m_StopTime: 30
    m_OrientationOffsetY: 0
    m_Level: 0
    m_CycleOffset: 0
    m_HasAdditiveReferencePose: 0
    m_LoopTime: 1
    m_LoopBlend: 0
    m_LoopBlendOrientation: 0
    m_LoopBlendPositionY: 0
    m_LoopBlendPositionXZ: 0
    m_KeepOriginalOrientation: 0
    m_KeepOriginalPositionY: 1
    m_KeepOriginalPositionXZ: 0
    m_HeightFromFeet: 0
    m_Mirror: 0
  m_EditorCurves:
  - curve:
      serializedVersion: 2
      m_Curve:
      - time: 0
        value: -0
        inSlope: 0
        outSlope: 0
        tangentMode: 0
      - time: 0.5
        value: -0
        inSlope: 0
        outSlope: 0
        tangentMode: 0
      - time: 1
        value: -0
        inSlope: 0
        outSlope: 0
        tangentMode: 0
      - time: 1.5
        value: -0
        inSlope: 0
        outSlope: 0
        tangentMode: 0
      - time: 2
        value: -0
        inSlope: 0
        outSlope: 0
        tangentMode: 0
      - time: 2.5
        value: -0
        inSlope: 0
        outSlope: 0
        tangentMode: 0
      - time: 3
        value: -0
        inSlope: 0
        outSlope: 0
        tangentMode: 0
      - time: 3.5
        value: -0
        inSlope: 0
        outSlope: 0
        tangentMode: 0
      - time: 4
        value: -0
        inSlope: 0
        outSlope: 0
        tangentMode: 0
      - time: 4.5
        value: -0
        inSlope: 0
        outSlope: 0
        tangentMode: 0
      - time: 5
        value: -0
        inSlope: 0
        outSlope: 0
        tangentMode: 0
      - time: 5.5
        value: -0
        inSlope: 0
        outSlope: 0
        tangentMode: 0
      - time: 6
        value: -0
        inSlope: 0
        outSlope: 0
        tangentMode: 0
      - time: 6.5
        value: -0
        inSlope: 0
        outSlope: 0
        tangentMode: 0
      - time: 7
        value: -0
        inSlope: 0
        outSlope: 0
        tangentMode: 0
      - time: 7.5
        value: -0
        inSlope: 0
        outSlope: 0
        tangentMode: 0
      - time: 8
        value: -0
        inSlope: 0
        outSlope: 0
        tangentMode: 0
      - time: 8.5
        value: -0
        inSlope: 0
        outSlope: 0
        tangentMode: 0
      - time: 9
        value: -0
        inSlope: 0
        outSlope: 0
        tangentMode: 0
      - time: 9.5
        value: -0
        inSlope: 0
        outSlope: 0
        tangentMode: 0
      - time: 10
        value: -0
        inSlope: 0
        outSlope: 0
        tangentMode: 0
      - time: 10.5
        value: -0
        inSlope: 0
        outSlope: 0
        tangentMode: 0
      - time: 11
        value: -0
        inSlope: 0
        outSlope: 0
        tangentMode: 0
      - time: 11.5
        value: -0
        inSlope: 0
        outSlope: 0
        tangentMode: 0
      - time: 12
        value: -0
        inSlope: 0
        outSlope: 0
        tangentMode: 0
      - time: 12.5
        value: -0
        inSlope: 0
        outSlope: 0
        tangentMode: 0
      - time: 13
        value: -0
        inSlope: 0
        outSlope: 0
        tangentMode: 0
      - time: 13.5
        value: -0
        inSlope: 0
        outSlope: 0
        tangentMode: 0
      - time: 14
        value: -0
        inSlope: 0
        outSlope: 0
        tangentMode: 0
      - time: 14.5
        value: -0
        inSlope: 0
        outSlope: 0
        tangentMode: 0
      - time: 15
        value: -0
        inSlope: 0
        outSlope: 0
        tangentMode: 0
      - time: 15.5
        value: -0
        inSlope: 0
        outSlope: 0
        tangentMode: 0
      - time: 16
        value: -0
        inSlope: 0
        outSlope: 0
        tangentMode: 0
      - time: 16.5
        value: -0
        inSlope: 0
        outSlope: 0
        tangentMode: 0
      - time: 17
        value: -0
        inSlope: 0
        outSlope: 0
        tangentMode: 0
      - time: 17.5
        value: -0
        inSlope: 0
        outSlope: 0
        tangentMode: 0
      - time: 18
        value: -0
        inSlope: 0
        outSlope: 0
        tangentMode: 0
      - time: 18.5
        value: -0
        inSlope: 0
        outSlope: 0
        tangentMode: 0
      - time: 19
        value: -0
        inSlope: 0
        outSlope: 0
        tangentMode: 0
      - time: 19.5
        value: -0
        inSlope: 0
        outSlope: 0
        tangentMode: 0
      - time: 20
        value: -0
        inSlope: 0
        outSlope: 0
        tangentMode: 0
      - time: 20.5
        value: -0
        inSlope: 0
        outSlope: 0
        tangentMode: 0
      - time: 21
        value: -0
        inSlope: 0
        outSlope: 0
        tangentMode: 0
      - time: 21.5
        value: -0
        inSlope: 0
        outSlope: 0
        tangentMode: 0
      - time: 22
        value: -0
        inSlope: 0
        outSlope: 0
        tangentMode: 0
      - time: 22.5
        value: -0
        inSlope: 0
        outSlope: 0
        tangentMode: 0
      - time: 23
        value: -0
        inSlope: 0
        outSlope: 0
        tangentMode: 0
      - time: 23.5
        value: -0
        inSlope: 0
        outSlope: 0
        tangentMode: 0
      - time: 24
        value: -0
        inSlope: 0
        outSlope: 0
        tangentMode: 0
      - time: 24.5
        value: -0
        inSlope: 0
        outSlope: 0
        tangentMode: 0
      - time: 25
        value: -0
        inSlope: 0
        outSlope: 0
        tangentMode: 0
      - time: 25.5
        value: -0
        inSlope: 0
        outSlope: 0
        tangentMode: 0
      - time: 26
        value: -0
        inSlope: 0
        outSlope: 0
        tangentMode: 0
      - time: 26.5
        value: -0
        inSlope: 0
        outSlope: 0
        tangentMode: 0
      - time: 27
        value: -0
        inSlope: 0
        outSlope: 0
        tangentMode: 0
      - time: 27.5
        value: -0
        inSlope: 0
        outSlope: 0
        tangentMode: 0
      - time: 28
        value: -0
        inSlope: 0
        outSlope: 0
        tangentMode: 0
      - time: 28.5
        value: -0
        inSlope: 0
        outSlope: 0
        tangentMode: 0
      - time: 29
        value: -0
        inSlope: 0
        outSlope: 0
        tangentMode: 0
      - time: 29.5
        value: -0
        inSlope: 0
        outSlope: 0
        tangentMode: 0
      - time: 30
        value: -0
        inSlope: 0
        outSlope: 0
        tangentMode: 0
      m_PreInfinity: 2
      m_PostInfinity: 2
      m_RotationOrder: 4
    attribute: m_LocalRotation.x
    path: 
    classID: 4
    script: {fileID: 0}
  - curve:
      serializedVersion: 2
      m_Curve:
      - time: 0
        value: -0
        inSlope: 0
        outSlope: 0
        tangentMode: 0
      - time: 0.5
        value: -0
        inSlope: 0
        outSlope: 0
        tangentMode: 0
      - time: 1
        value: -0
        inSlope: 0
        outSlope: 0
        tangentMode: 0
      - time: 1.5
        value: -0
        inSlope: 0
        outSlope: 0
        tangentMode: 0
      - time: 2
        value: -0
        inSlope: 0
        outSlope: 0
        tangentMode: 0
      - time: 2.5
        value: -0
        inSlope: 0
        outSlope: 0
        tangentMode: 0
      - time: 3
        value: -0
        inSlope: 0
        outSlope: 0
        tangentMode: 0
      - time: 3.5
        value: -0
        inSlope: 0
        outSlope: 0
        tangentMode: 0
      - time: 4
        value: -0
        inSlope: 0
        outSlope: 0
        tangentMode: 0
      - time: 4.5
        value: -0
        inSlope: 0
        outSlope: 0
        tangentMode: 0
      - time: 5
        value: -0
        inSlope: 0
        outSlope: 0
        tangentMode: 0
      - time: 5.5
        value: -0
        inSlope: 0
        outSlope: 0
        tangentMode: 0
      - time: 6
        value: -0
        inSlope: 0
        outSlope: 0
        tangentMode: 0
      - time: 6.5
        value: -0
        inSlope: 0
        outSlope: 0
        tangentMode: 0
      - time: 7
        value: -0
        inSlope: 0
        outSlope: 0
        tangentMode: 0
      - time: 7.5
        value: -0
        inSlope: 0
        outSlope: 0
        tangentMode: 0
      - time: 8
        value: -0
        inSlope: 0
        outSlope: 0
        tangentMode: 0
      - time: 8.5
        value: -0
        inSlope: 0
        outSlope: 0
        tangentMode: 0
      - time: 9
        value: -0
        inSlope: 0
        outSlope: 0
        tangentMode: 0
      - time: 9.5
        value: -0
        inSlope: 0
        outSlope: 0
        tangentMode: 0
      - time: 10
        value: -0
        inSlope: 0
        outSlope: 0
        tangentMode: 0
      - time: 10.5
        value: -0
        inSlope: 0
        outSlope: 0
        tangentMode: 0
      - time: 11
        value: -0
        inSlope: 0
        outSlope: 0
        tangentMode: 0
      - time: 11.5
        value: -0
        inSlope: 0
        outSlope: 0
        tangentMode: 0
      - time: 12
        value: -0
        inSlope: 0
        outSlope: 0
        tangentMode: 0
      - time: 12.5
        value: -0
        inSlope: 0
        outSlope: 0
        tangentMode: 0
      - time: 13
        value: -0
        inSlope: 0
        outSlope: 0
        tangentMode: 0
      - time: 13.5
        value: -0
        inSlope: 0
        outSlope: 0
        tangentMode: 0
      - time: 14
        value: -0
        inSlope: 0
        outSlope: 0
        tangentMode: 0
      - time: 14.5
        value: -0
        inSlope: 0
        outSlope: 0
        tangentMode: 0
      - time: 15
        value: -0
        inSlope: 0
        outSlope: 0
        tangentMode: 0
      - time: 15.5
        value: -0
        inSlope: 0
        outSlope: 0
        tangentMode: 0
      - time: 16
        value: -0
        inSlope: 0
        outSlope: 0
        tangentMode: 0
      - time: 16.5
        value: -0
        inSlope: 0
        outSlope: 0
        tangentMode: 0
      - time: 17
        value: -0
        inSlope: 0
        outSlope: 0
        tangentMode: 0
      - time: 17.5
        value: -0
        inSlope: 0
        outSlope: 0
        tangentMode: 0
      - time: 18
        value: -0
        inSlope: 0
        outSlope: 0
        tangentMode: 0
      - time: 18.5
        value: -0
        inSlope: 0
        outSlope: 0
        tangentMode: 0
      - time: 19
        value: -0
        inSlope: 0
        outSlope: 0
        tangentMode: 0
      - time: 19.5
        value: -0
        inSlope: 0
        outSlope: 0
        tangentMode: 0
      - time: 20
        value: -0
        inSlope: 0
        outSlope: 0
        tangentMode: 0
      - time: 20.5
        value: -0
        inSlope: 0
        outSlope: 0
        tangentMode: 0
      - time: 21
        value: -0
        inSlope: 0
        outSlope: 0
        tangentMode: 0
      - time: 21.5
        value: -0
        inSlope: 0
        outSlope: 0
        tangentMode: 0
      - time: 22
        value: -0
        inSlope: 0
        outSlope: 0
        tangentMode: 0
      - time: 22.5
        value: -0
        inSlope: 0
        outSlope: 0
        tangentMode: 0
      - time: 23
        value: -0
        inSlope: 0
        outSlope: 0
        tangentMode: 0
      - time: 23.5
        value: -0
        inSlope: 0
        outSlope: 0
        tangentMode: 0
      - time: 24
        value: -0
        inSlope: 0
        outSlope: 0
        tangentMode: 0
      - time: 24.5
        value: -0
        inSlope: 0
        outSlope: 0
        tangentMode: 0
      - time: 25
        value: -0
        inSlope: 0
        outSlope: 0
        tangentMode: 0
      - time: 25.5
        value: -0
        inSlope: 0
        outSlope: 0
        tangentMode: 0
      - time: 26
        value: -0
        inSlope: 0
        outSlope: 0
        tangentMode: 0
      - time: 26.5
        value: -0
        inSlope: 0
        outSlope: 0
        tangentMode: 0
      - time: 27
        value: -0
        inSlope: 0
        outSlope: 0
        tangentMode: 0
      - time: 27.5
        value: -0
        inSlope: 0
        outSlope: 0
        tangentMode: 0
      - time: 28
        value: -0
        inSlope: 0
        outSlope: 0
        tangentMode: 0
      - time: 28.5
        value: -0
        inSlope: 0
        outSlope: 0
        tangentMode: 0
      - time: 29
        value: -0
        inSlope: 0
        outSlope: 0
        tangentMode: 0
      - time: 29.5
        value: -0
        inSlope: 0
        outSlope: 0
        tangentMode: 0
      - time: 30
        value: -0
        inSlope: 0
        outSlope: 0
        tangentMode: 0
      m_PreInfinity: 2
      m_PostInfinity: 2
      m_RotationOrder: 4
    attribute: m_LocalRotation.y
    path: 
    classID: 4
    script: {fileID: 0}
  - curve:
      serializedVersion: 2
      m_Curve:
      - time: 0
        value: -0.00087252446
        inSlope: -0.10464032
        outSlope: -0.10464032
        tangentMode: 0
      - time: 0.5
        value: -0.053192683
        inSlope: -0.10449484
        outSlope: -0.10449484
        tangentMode: 0
      - time: 1
        value: -0.10536736
        inSlope: -0.10406024
        outSlope: -0.10406024
        tangentMode: 0
      - time: 1.5
        value: -0.15725292
        inSlope: -0.10334082
        outSlope: -0.10334082
        tangentMode: 0
      - time: 2
        value: -0.20870818
        inSlope: -0.10233854
        outSlope: -0.10233854
        tangentMode: 0
      - time: 2.5
        value: -0.25959146
        inSlope: -0.10105543
        outSlope: -0.10105543
        tangentMode: 0
      - time: 3
        value: -0.3097636
        inSlope: -0.09949598
        outSlope: -0.09949598
        tangentMode: 0
      - time: 3.5
        value: -0.35908744
        inSlope: -0.09766373
        outSlope: -0.09766373
        tangentMode: 0
      - time: 4
        value: -0.40742734
        inSlope: -0.09556392
        outSlope: -0.09556392
        tangentMode: 0
      - time: 4.5
        value: -0.45465136
        inSlope: -0.093202144
        outSlope: -0.093202144
        tangentMode: 0
      - time: 5
        value: -0.5006295
        inSlope: -0.09058517
        outSlope: -0.09058517
        tangentMode: 0
      - time: 5.5
        value: -0.5452365
        inSlope: -0.087720335
        outSlope: -0.087720335
        tangentMode: 0
      - time: 6
        value: -0.5883498
        inSlope: -0.08461481
        outSlope: -0.08461481
        tangentMode: 0
      - time: 6.5
        value: -0.62985134
        inSlope: -0.08127785
        outSlope: -0.08127785
        tangentMode: 0
      - time: 7
        value: -0.66962767
        inSlope: -0.07771808
        outSlope: -0.07771808
        tangentMode: 0
      - time: 7.5
        value: -0.7075694
        inSlope: -0.073944986
        outSlope: -0.073944986
        tangentMode: 0
      - time: 8
        value: -0.74357265
        inSlope: -0.06996989
        outSlope: -0.06996989
        tangentMode: 0
      - time: 8.5
        value: -0.7775393
        inSlope: -0.06580311
        outSlope: -0.06580311
        tangentMode: 0
      - time: 9
        value: -0.80937576
        inSlope: -0.061455846
        outSlope: -0.061455846
        tangentMode: 0
      - time: 9.5
        value: -0.83899516
        inSlope: -0.056940317
        outSlope: -0.056940317
        tangentMode: 0
      - time: 10
        value: -0.8663161
        inSlope: -0.052268684
        outSlope: -0.052268684
        tangentMode: 0
      - time: 10.5
        value: -0.89126384
        inSlope: -0.047454
        outSlope: -0.047454
        tangentMode: 0
      - time: 11
        value: -0.9137701
        inSlope: -0.042509317
        outSlope: -0.042509317
        tangentMode: 0
      - time: 11.5
        value: -0.93377316
        inSlope: -0.03744811
        outSlope: -0.03744811
        tangentMode: 0
      - time: 12
        value: -0.9512182
        inSlope: -0.03228426
        outSlope: -0.03228426
        tangentMode: 0
      - time: 12.5
        value: -0.9660574
        inSlope: -0.027032077
        outSlope: -0.027032077
        tangentMode: 0
      - time: 13
        value: -0.97825027
        inSlope: -0.021705866
        outSlope: -0.021705866
        tangentMode: 0
      - time: 13.5
        value: -0.9877633
        inSlope: -0.016320169
        outSlope: -0.016320169
        tangentMode: 0
      - time: 14
        value: -0.99457043
        inSlope: -0.010889769
        outSlope: -0.010889769
        tangentMode: 0
      - time: 14.5
        value: -0.99865305
        inSlope: -0.0054294467
        outSlope: -0.0054294467
        tangentMode: 0
      - time: 15
        value: -0.9999999
        inSlope: 0.000045657158
        outSlope: 0.000045657158
        tangentMode: 0
      - time: 15.5
        value: -0.9986074
        inSlope: 0.005520642
        outSlope: 0.005520642
        tangentMode: 0
      - time: 16
        value: -0.99447924
        inSlope: 0.0109805465
        outSlope: 0.0109805465
        tangentMode: 0
      - time: 16.5
        value: -0.98762685
        inSlope: 0.01641035
        outSlope: 0.01641035
        tangentMode: 0
      - time: 17
        value: -0.9780689
        inSlope: 0.021795154
        outSlope: 0.021795154
        tangentMode: 0
      - time: 17.5
        value: -0.9658317
        inSlope: 0.027120292
        outSlope: 0.027120292
        tangentMode: 0
      - time: 18
        value: -0.9509486
        inSlope: 0.032371223
        outSlope: 0.032371223
        tangentMode: 0
      - time: 18.5
        value: -0.9334605
        inSlope: 0.037533343
        outSlope: 0.037533343
        tangentMode: 0
      - time: 19
        value: -0.91341525
        inSlope: 0.042592645
        outSlope: 0.042592645
        tangentMode: 0
      - time: 19.5
        value: -0.8908678
        inSlope: 0.0475353
        outSlope: 0.0475353
        tangentMode: 0
      - time: 20
        value: -0.86587995
        inSlope: 0.05234778
        outSlope: 0.05234778
        tangentMode: 0
      - time: 20.5
        value: -0.83852005
        inSlope: 0.05701685
        outSlope: 0.05701685
        tangentMode: 0
      - time: 21
        value: -0.8088631
        inSlope: 0.061529636
        outSlope: 0.061529636
        tangentMode: 0
      - time: 21.5
        value: -0.7769904
        inSlope: 0.06587404
        outSlope: 0.06587404
        tangentMode: 0
      - time: 22
        value: -0.74298906
        inSlope: 0.0700379
        outSlope: 0.0700379
        tangentMode: 0
      - time: 22.5
        value: -0.7069525
        inSlope: 0.074009836
        outSlope: 0.074009836
        tangentMode: 0
      - time: 23
        value: -0.6689792
        inSlope: 0.077779114
        outSlope: 0.077779114
        tangentMode: 0
      - time: 23.5
        value: -0.6291734
        inSlope: 0.081335306
        outSlope: 0.081335306
        tangentMode: 0
      - time: 24
        value: -0.5876439
        inSlope: 0.08466864
        outSlope: 0.08466864
        tangentMode: 0
      - time: 24.5
        value: -0.54450476
        inSlope: 0.087769866
        outSlope: 0.087769866
        tangentMode: 0
      - time: 25
        value: -0.49987406
        inSlope: 0.09063101
        outSlope: 0.09063101
        tangentMode: 0
      - time: 25.5
        value: -0.45387375
        inSlope: 0.09324375
        outSlope: 0.09324375
        tangentMode: 0
      - time: 26
        value: -0.4066303
        inSlope: 0.09560102
        outSlope: 0.09560102
        tangentMode: 0
      - time: 26.5
        value: -0.35827273
        inSlope: 0.097696394
        outSlope: 0.097696394
        tangentMode: 0
      - time: 27
        value: -0.3089339
        inSlope: 0.09952393
        outSlope: 0.09952393
        tangentMode: 0
      - time: 27.5
        value: -0.2587488
        inSlope: 0.101079285
        outSlope: 0.101079285
        tangentMode: 0
      - time: 28
        value: -0.20785463
        inSlope: 0.10235746
        outSlope: 0.10235746
        tangentMode: 0
      - time: 28.5
        value: -0.15639134
        inSlope: 0.103355296
        outSlope: 0.103355296
        tangentMode: 0
      - time: 29
        value: -0.10449933
        inSlope: 0.10407001
        outSlope: 0.10407001
        tangentMode: 0
      - time: 29.5
        value: -0.05232133
        inSlope: 0.10449933
        outSlope: 0.10449933
        tangentMode: 0
      - time: 30
        value: -0
        inSlope: 0.10464266
        outSlope: 0.10464266
        tangentMode: 0
      m_PreInfinity: 2
      m_PostInfinity: 2
      m_RotationOrder: 4
    attribute: m_LocalRotation.z
    path: 
    classID: 4
    script: {fileID: 0}
  - curve:
      serializedVersion: 2
      m_Curve:
      - time: 0
        value: 0.99999964
        inSlope: -0.0028307438
        outSlope: -0.0028307438
        tangentMode: 0
      - time: 0.5
        value: 0.9985843
        inSlope: -0.005566299
        outSlope: -0.005566299
        tangentMode: 0
      - time: 1
        value: 0.99443334
        inSlope: -0.011025906
        outSlope: -0.011025906
        tangentMode: 0
      - time: 1.5
        value: 0.98755836
        inSlope: -0.016455352
        outSlope: -0.016455352
        tangentMode: 0
      - time: 2
        value: 0.977978
        inSlope: -0.021839857
        outSlope: -0.021839857
        tangentMode: 0
      - time: 2.5
        value: 0.9657185
        inSlope: -0.0271644
        outSlope: -0.0271644
        tangentMode: 0
      - time: 3
        value: 0.9508136
        inSlope: -0.032414556
        outSlope: -0.032414556
        tangentMode: 0
      - time: 3.5
        value: 0.93330395
        inSlope: -0.03757596
        outSlope: -0.03757596
        tangentMode: 0
      - time: 4
        value: 0.91323763
        inSlope: -0.042634428
        outSlope: -0.042634428
        tangentMode: 0
      - time: 4.5
        value: 0.8906695
        inSlope: -0.04757595
        outSlope: -0.04757595
        tangentMode: 0
      - time: 5
        value: 0.8656617
        inSlope: -0.052387297
        outSlope: -0.052387297
        tangentMode: 0
      - time: 5.5
        value: 0.8382822
        inSlope: -0.057055175
        outSlope: -0.057055175
        tangentMode: 0
      - time: 6
        value: 0.8086065
        inSlope: -0.06156653
        outSlope: -0.06156653
        tangentMode: 0
      - time: 6.5
        value: 0.7767157
        inSlope: -0.065909505
        outSlope: -0.065909505
        tangentMode: 0
      - time: 7
        value: 0.742697
        inSlope: -0.07007182
        outSlope: -0.07007182
        tangentMode: 0
      - time: 7.5
        value: 0.7066439
        inSlope: -0.07404184
        outSlope: -0.07404184
        tangentMode: 0
      - time: 8
        value: 0.66865516
        inSlope: -0.07780951
        outSlope: -0.07780951
        tangentMode: 0
      - time: 8.5
        value: 0.62883437
        inSlope: -0.081364036
        outSlope: -0.081364036
        tangentMode: 0
      - time: 9
        value: 0.5872911
        inSlope: -0.08469552
        outSlope: -0.08469552
        tangentMode: 0
      - time: 9.5
        value: 0.54413885
        inSlope: -0.08779496
        outSlope: -0.08779496
        tangentMode: 0
      - time: 10
        value: 0.49949616
        inSlope: -0.09065369
        outSlope: -0.09065369
        tangentMode: 0
      - time: 10.5
        value: 0.45348516
        inSlope: -0.0932644
        outSlope: -0.0932644
        tangentMode: 0
      - time: 11
        value: 0.40623176
        inSlope: -0.09561965
        outSlope: -0.09561965
        tangentMode: 0
      - time: 11.5
        value: 0.3578655
        inSlope: -0.097712815
        outSlope: -0.097712815
        tangentMode: 0
      - time: 12
        value: 0.30851895
        inSlope: -0.09953809
        outSlope: -0.09953809
        tangentMode: 0
      - time: 12.5
        value: 0.25832742
        inSlope: -0.10109091
        outSlope: -0.10109091
        tangentMode: 0
      - time: 13
        value: 0.20742804
        inSlope: -0.10236701
        outSlope: -0.10236701
        tangentMode: 0
      - time: 13.5
        value: 0.15596041
        inSlope: -0.10336238
        outSlope: -0.10336238
        tangentMode: 0
      - time: 14
        value: 0.10406566
        inSlope: -0.1040747
        outSlope: -0.1040747
        tangentMode: 0
      - time: 14.5
        value: 0.051885705
        inSlope: -0.10450192
        outSlope: -0.10450192
        tangentMode: 0
      - time: 15
        value: -0.0004362623
        inSlope: -0.10464286
        outSlope: -0.10464286
        tangentMode: 0
      - time: 15.5
        value: -0.052757155
        inSlope: -0.10449714
        outSlope: -0.10449714
        tangentMode: 0
      - time: 16
        value: -0.1049334
        inSlope: -0.10406515
        outSlope: -0.10406515
        tangentMode: 0
      - time: 16.5
        value: -0.15682231
        inSlope: -0.10334822
        outSlope: -0.10334822
        tangentMode: 0
      - time: 17
        value: -0.20828162
        inSlope: -0.102347836
        outSlope: -0.102347836
        tangentMode: 0
      - time: 17.5
        value: -0.25917014
        inSlope: -0.10106729
        outSlope: -0.10106729
        tangentMode: 0
      - time: 18
        value: -0.3093489
        inSlope: -0.0995101
        outSlope: -0.0995101
        tangentMode: 0
      - time: 18.5
        value: -0.35868025
        inSlope: -0.09768009
        outSlope: -0.09768009
        tangentMode: 0
      - time: 19
        value: -0.407029
        inSlope: -0.095582396
        outSlope: -0.095582396
        tangentMode: 0
      - time: 19.5
        value: -0.45426264
        inSlope: -0.09322283
        outSlope: -0.09322283
        tangentMode: 0
      - time: 20
        value: -0.5002518
        inSlope: -0.09060809
        outSlope: -0.09060809
        tangentMode: 0
      - time: 20.5
        value: -0.54487073
        inSlope: -0.08774519
        outSlope: -0.08774519
        tangentMode: 0
      - time: 21
        value: -0.587997
        inSlope: -0.084641695
        outSlope: -0.084641695
        tangentMode: 0
      - time: 21.5
        value: -0.6295124
        inSlope: -0.08130658
        outSlope: -0.08130658
        tangentMode: 0
      - time: 22
        value: -0.6693036
        inSlope: -0.0777486
        outSlope: -0.0777486
        tangentMode: 0
      - time: 22.5
        value: -0.707261
        inSlope: -0.07397753
        outSlope: -0.07397753
        tangentMode: 0
      - time: 23
        value: -0.7432811
        inSlope: -0.07000393
        outSlope: -0.07000393
        tangentMode: 0
      - time: 23.5
        value: -0.77726495
        inSlope: -0.065838516
        outSlope: -0.065838516
        tangentMode: 0
      - time: 24
        value: -0.80911964
        inSlope: -0.0614928
        outSlope: -0.0614928
        tangentMode: 0
      - time: 24.5
        value: -0.83875775
        inSlope: -0.056978464
        outSlope: -0.056978464
        tangentMode: 0
      - time: 25
        value: -0.8660981
        inSlope: -0.05230826
        outSlope: -0.05230826
        tangentMode: 0
      - time: 25.5
        value: -0.891066
        inSlope: -0.04749471
        outSlope: -0.04749471
        tangentMode: 0
      - time: 26
        value: -0.9135928
        inSlope: -0.04255098
        outSlope: -0.04255098
        tangentMode: 0
      - time: 26.5
        value: -0.933617
        inSlope: -0.037490666
        outSlope: -0.037490666
        tangentMode: 0
      - time: 27
        value: -0.9510835
        inSlope: -0.032327652
        outSlope: -0.032327652
        tangentMode: 0
      - time: 27.5
        value: -0.96594465
        inSlope: -0.027076244
        outSlope: -0.027076244
        tangentMode: 0
      - time: 28
        value: -0.9781597
        inSlope: -0.02175051
        outSlope: -0.02175051
        tangentMode: 0
      - time: 28.5
        value: -0.98769516
        inSlope: -0.01636523
        outSlope: -0.01636523
        tangentMode: 0
      - time: 29
        value: -0.99452496
        inSlope: -0.010935128
        outSlope: -0.010935128
        tangentMode: 0
      - time: 29.5
        value: -0.9986303
        inSlope: -0.0054750443
        outSlope: -0.0054750443
        tangentMode: 0
      - time: 30
        value: -1
        inSlope: -0.0027394295
        outSlope: -0.0027394295
        tangentMode: 0
      m_PreInfinity: 2
      m_PostInfinity: 2
      m_RotationOrder: 4
    attribute: m_LocalRotation.w
    path: 
    classID: 4
    script: {fileID: 0}
  m_EulerEditorCurves:
  - curve:
      serializedVersion: 2
      m_Curve:
      - time: 0
        value: -0
        inSlope: 0
        outSlope: 0
        tangentMode: 10
      - time: 30
        value: -0
        inSlope: 0
        outSlope: 0
        tangentMode: 10
      m_PreInfinity: 2
      m_PostInfinity: 2
      m_RotationOrder: 4
    attribute: localEulerAnglesBaked.x
    path: 
    classID: 4
    script: {fileID: 0}
  - curve:
      serializedVersion: 2
      m_Curve:
      - time: 0
        value: 0
        inSlope: 0
        outSlope: 0
        tangentMode: 10
      - time: 30
        value: 0
        inSlope: 0
        outSlope: 0
        tangentMode: 10
      m_PreInfinity: 2
      m_PostInfinity: 2
      m_RotationOrder: 4
    attribute: localEulerAnglesBaked.y
    path: 
    classID: 4
    script: {fileID: 0}
  - curve:
      serializedVersion: 2
      m_Curve:
      - time: 0
        value: 359.90002
        inSlope: 0
        outSlope: -11.996668
        tangentMode: 21
      - time: 30
        value: 0
        inSlope: -11.996668
        outSlope: 0
        tangentMode: 21
      m_PreInfinity: 2
      m_PostInfinity: 2
      m_RotationOrder: 4
    attribute: localEulerAnglesBaked.z
    path: 
    classID: 4
    script: {fileID: 0}
  m_HasGenericRootTransform: 0
  m_HasMotionFloatCurves: 0
  m_GenerateMotionCurves: 0
  m_Events: []
