%YAML 1.1
%TAG !u! tag:unity3d.com,2011:
--- !u!114 &11400000
MonoBehaviour:
  m_ObjectHideFlags: 0
  m_PrefabParentObject: {fileID: 0}
  m_PrefabInternal: {fileID: 0}
  m_GameObject: {fileID: 0}
  m_Enabled: 1
  m_EditorHideFlags: 0
  m_Script: {fileID: 11500000, guid: 1387f6bb75316c240852b30eb7fcbce8, type: 3}
  m_Name: PackBooster2
  m_EditorClassIdentifier: 
  packNameID: BOOSTER_PACK_NAME_2
  packOrder: 17
  packType: 5
  packImage: {fileID: 21300000, guid: ee2504f0f77b32f4aa41b339b5bbb95f, type: 3}
  packPrice: 600
  currencyType: 1
  packRewardData: {fileID: 11400000, guid: 5277a84ecdafc4e40af2c7719d7f6aeb, type: 2}
  packRewardAmount: 1
  productData: {fileID: 0}
