%YAML 1.1
%TAG !u! tag:unity3d.com,2011:
--- !u!114 &11400000
MonoBehaviour:
  m_ObjectHideFlags: 0
  m_PrefabParentObject: {fileID: 0}
  m_PrefabInternal: {fileID: 0}
  m_GameObject: {fileID: 0}
  m_Enabled: 1
  m_EditorHideFlags: 0
  m_Script: {fileID: 11500000, guid: 1387f6bb75316c240852b30eb7fcbce8, type: 3}
  m_Name: PackWeaponRailgun
  m_EditorClassIdentifier: 
  packNameID: PACK_RAILGUN_NAME
  packOrder: 12
  packType: 3
  packImage: {fileID: 21300000, guid: 2eacaf9e9f0133a48bd9de1a2645b21c, type: 3}
  packPrice: 81000
  currencyType: 0
  packRewardData: {fileID: 11400000, guid: dce8a435b1bc4cc43ab2bd7919e2ca6d, type: 2}
  packRewardAmount: 3
  productData: {fileID: 0}
