%YAML 1.1
%TAG !u! tag:unity3d.com,2011:
--- !u!114 &11400000
MonoBehaviour:
  m_ObjectHideFlags: 0
  m_PrefabParentObject: {fileID: 0}
  m_PrefabInternal: {fileID: 0}
  m_GameObject: {fileID: 0}
  m_Enabled: 1
  m_EditorHideFlags: 0
  m_Script: {fileID: 11500000, guid: 1387f6bb75316c240852b30eb7fcbce8, type: 3}
  m_Name: PackBundle2
  m_EditorClassIdentifier: 
  packNameID: PACK_BUNDLE2_NAME
  packOrder: 15
  packType: 2
  packImage: {fileID: 21300000, guid: dca6929164676bd4194de68346893677, type: 3}
  packPrice: 2700
  currencyType: 1
  packRewardData: {fileID: 11400000, guid: e614f60d01a050140b95a0da7d87f909, type: 2}
  packRewardAmount: 25
  productData: {fileID: 0}
