%YAML 1.1
%TAG !u! tag:unity3d.com,2011:
--- !u!114 &11400000
MonoBehaviour:
  m_ObjectHideFlags: 0
  m_PrefabParentObject: {fileID: 0}
  m_PrefabInternal: {fileID: 0}
  m_GameObject: {fileID: 0}
  m_Enabled: 1
  m_EditorHideFlags: 0
  m_Script: {fileID: 11500000, guid: 1387f6bb75316c240852b30eb7fcbce8, type: 3}
  m_Name: PackFreeUpgradeWeaponArtillery
  m_EditorClassIdentifier: 
  packNameID: 
  packOrder: 0
  packType: 3
  packImage: {fileID: 21300000, guid: c060bfb3f6d69b247a977db0390971be, type: 3}
  packPrice: 0
  currencyType: 0
  packRewardData: {fileID: 11400000, guid: 08d902c696e56ca42b6d20fb5eef242d, type: 2}
  packRewardAmount: 1
  productData: {fileID: 0}
