%YAML 1.1
%TAG !u! tag:unity3d.com,2011:
--- !u!114 &11400000
MonoBehaviour:
  m_ObjectHideFlags: 0
  m_PrefabParentObject: {fileID: 0}
  m_PrefabInternal: {fileID: 0}
  m_GameObject: {fileID: 0}
  m_Enabled: 1
  m_EditorHideFlags: 0
  m_Script: {fileID: 11500000, guid: 3178e4dfb4b748b4da89d8866e2d63f0, type: 3}
  m_Name: EnemyBomber
  m_EditorClassIdentifier: 
  enemyType: 7
  enemyNameID: ENEMY_BOMBER_NAME
  isUnitAir: 1
  isUnitBonus: 0
  enemyNormalSprite: {fileID: 21300000, guid: 4e9b71e13ce93724e9eda3a208dfa79d, type: 3}
  enemyDestroyedTexture: {fileID: 2800000, guid: 4e9b71e13ce93724e9eda3a208dfa79d,
    type: 3}
  enemyColor: {r: 1, g: 1, b: 1, a: 1}
  trailColor: {r: 0.9450981, g: 0.42352945, b: 0.19215688, a: 1}
  colliderRadius: 10
  normalAttributes:
    health: 215
    power: 50
    speed: 18
    score: 90
  hardAttributes:
    health: 800
    power: 75
    speed: 18
    score: 165
  insaneAttributes:
    health: 3240
    power: 100
    speed: 18
    score: 235
  customAttributes:
    health: 1
    power: 1
    speed: 1
    score: 0
  enemyDeathSound: {fileID: 8300000, guid: 00fcf1cd5f8f13e4ca7c2074e15b70c9, type: 3}
  movementType: 2
  targetBaseType: 0
  continueAfterTarget: 0
  spawnType: -1
  unitSpawnTimer: 20
  unitSpawnCount: 1
  destroyOnSpawn: 0
  returnFromBorder: 0
  bossSpecial: 0
  timeToDeploySpecial: 0
  specialRepeatTime: 0
  specialValue: 0
