%YAML 1.1
%TAG !u! tag:unity3d.com,2011:
--- !u!114 &11400000
MonoBehaviour:
  m_ObjectHideFlags: 0
  m_PrefabParentObject: {fileID: 0}
  m_PrefabInternal: {fileID: 0}
  m_GameObject: {fileID: 0}
  m_Enabled: 1
  m_EditorHideFlags: 0
  m_Script: {fileID: 11500000, guid: 9804831c8e711074887bb4b850858446, type: 3}
  m_Name: AchievementConvoyLv4
  m_EditorClassIdentifier: 
  achievementNameID: ACHIEVEMENT_CONVOY_LV4_NAME
  achievementDescID: ACHIEVEMENT_CONVOY_LV4_DESC
  achievementType: 8
  achievementGoal: 2500
  achievementReward: {fileID: 11400000, guid: a3c0fa6b9c8f6de468a8abad85f5b0ce, type: 2}
  achievementOrder: 505
