%YAML 1.1
%TAG !u! tag:unity3d.com,2011:
--- !u!114 &11400000
MonoBehaviour:
  m_ObjectHideFlags: 0
  m_PrefabParentObject: {fileID: 0}
  m_PrefabInternal: {fileID: 0}
  m_GameObject: {fileID: 0}
  m_Enabled: 1
  m_EditorHideFlags: 0
  m_Script: {fileID: 11500000, guid: 9804831c8e711074887bb4b850858446, type: 3}
  m_Name: AchievementChallengeLv24
  m_EditorClassIdentifier: 
  achievementNameID: ACHIEVEMENT_CHALLENGE_LV24_NAME
  achievementDescID: ACHIEVEMENT_CHALLENGE_LV24_DESC
  achievementType: 51
  achievementGoal: 1
  achievementReward: {fileID: 11400000, guid: 92b9572dbc4fe6843bbf2172a16d5a79, type: 2}
  achievementOrder: 123
