%YAML 1.1
%TAG !u! tag:unity3d.com,2011:
--- !u!114 &11400000
MonoBehaviour:
  m_ObjectHideFlags: 0
  m_PrefabParentObject: {fileID: 0}
  m_PrefabInternal: {fileID: 0}
  m_GameObject: {fileID: 0}
  m_Enabled: 1
  m_EditorHideFlags: 0
  m_Script: {fileID: 11500000, guid: 9804831c8e711074887bb4b850858446, type: 3}
  m_Name: AchievementAssaultHelicopterLv3
  m_EditorClassIdentifier: 
  achievementNameID: ACHIEVEMENT_ASSAULTHELICOPTER_LV3_NAME
  achievementDescID: ACHIEVEMENT_ASSAULTHELICOPTER_LV3_DESC
  achievementType: 16
  achievementGoal: 500
  achievementReward: {fileID: 11400000, guid: efcc940edc29c3d49b28725cd0db5838, type: 2}
  achievementOrder: 401
