%YAML 1.1
%TAG !u! tag:unity3d.com,2011:
--- !u!114 &11400000
MonoBehaviour:
  m_ObjectHideFlags: 0
  m_PrefabParentObject: {fileID: 0}
  m_PrefabInternal: {fileID: 0}
  m_GameObject: {fileID: 0}
  m_Enabled: 1
  m_EditorHideFlags: 0
  m_Script: {fileID: 11500000, guid: 9804831c8e711074887bb4b850858446, type: 3}
  m_Name: AchievementKillLv2
  m_EditorClassIdentifier: 
  achievementNameID: ACHIEVEMENT_KILL_LV2_NAME
  achievementDescID: ACHIEVEMENT_KILL_LV2_DESC
  achievementType: 1
  achievementGoal: 100
  achievementReward: {fileID: 11400000, guid: 7003a029a146b1b40bd0d7839617a555, type: 2}
  achievementOrder: 312
