%YAML 1.1
%TAG !u! tag:unity3d.com,2011:
--- !u!114 &11400000
MonoBehaviour:
  m_ObjectHideFlags: 0
  m_PrefabParentObject: {fileID: 0}
  m_PrefabInternal: {fileID: 0}
  m_GameObject: {fileID: 0}
  m_Enabled: 1
  m_EditorHideFlags: 0
  m_Script: {fileID: 11500000, guid: 9804831c8e711074887bb4b850858446, type: 3}
  m_Name: AchievementFighterLv1
  m_EditorClassIdentifier: 
  achievementNameID: ACHIEVEMENT_FIGHTER_LV1_NAME
  achievementDescID: ACHIEVEMENT_FIGHTER_LV1_DESC
  achievementType: 11
  achievementGoal: 10
  achievementReward: {fileID: 11400000, guid: c732e139d2bf14d4a8c1bf71e668d03e, type: 2}
  achievementOrder: 207
