%YAML 1.1
%TAG !u! tag:unity3d.com,2011:
--- !u!114 &11400000
MonoBehaviour:
  m_ObjectHideFlags: 0
  m_PrefabParentObject: {fileID: 0}
  m_PrefabInternal: {fileID: 0}
  m_GameObject: {fileID: 0}
  m_Enabled: 1
  m_EditorHideFlags: 0
  m_Script: {fileID: 11500000, guid: 8e8a1941fbf4b7d49a9227cf3aa789fc, type: 3}
  m_Name: Challenge023_Mission23
  m_EditorClassIdentifier: 
  challengeNameID: CHALLENGE_MISSION23_NAME
  normalChallengeNumber: 018
  hardChallengeNumber: 036
  insaneChallengeNumber: 054
  sceneName: Mission_23
  challengeMap: {fileID: 21300000, guid: c5cdc943251ded940938c3be55eef4af, type: 3}
  challengeType: 0
  normalWaves:
  - EnemyOrientationNorth: 0
    EnemyOrientationEast: 1
    EnemyOrientationSouth: 0
    EnemyOrientationWest: 1
    enemyAmount: 0
    enemyInfo:
    - type: 7
      amount: 1
      spawnPercentage: 0
    - type: 7
      amount: 1
      spawnPercentage: 0
    - type: 9
      amount: 9
      spawnPercentage: 0
  - EnemyOrientationNorth: 1
    EnemyOrientationEast: 0
    EnemyOrientationSouth: 1
    EnemyOrientationWest: 1
    enemyAmount: 0
    enemyInfo:
    - type: 1
      amount: 11
      spawnPercentage: 0
  - EnemyOrientationNorth: 0
    EnemyOrientationEast: 1
    EnemyOrientationSouth: 0
    EnemyOrientationWest: 1
    enemyAmount: 0
    enemyInfo:
    - type: 12
      amount: 11
      spawnPercentage: 0
  - EnemyOrientationNorth: 1
    EnemyOrientationEast: 0
    EnemyOrientationSouth: 1
    EnemyOrientationWest: 1
    enemyAmount: 0
    enemyInfo:
    - type: 2
      amount: 11
      spawnPercentage: 0
  - EnemyOrientationNorth: 0
    EnemyOrientationEast: 1
    EnemyOrientationSouth: 0
    EnemyOrientationWest: 1
    enemyAmount: 0
    enemyInfo:
    - type: 11
      amount: 11
      spawnPercentage: 0
  - EnemyOrientationNorth: 1
    EnemyOrientationEast: 0
    EnemyOrientationSouth: 1
    EnemyOrientationWest: 1
    enemyAmount: 0
    enemyInfo:
    - type: 3
      amount: 11
      spawnPercentage: 0
  - EnemyOrientationNorth: 0
    EnemyOrientationEast: 1
    EnemyOrientationSouth: 0
    EnemyOrientationWest: 1
    enemyAmount: 0
    enemyInfo:
    - type: 7
      amount: 11
      spawnPercentage: 0
  hardWaves:
  - EnemyOrientationNorth: 1
    EnemyOrientationEast: 0
    EnemyOrientationSouth: 1
    EnemyOrientationWest: 1
    enemyAmount: 0
    enemyInfo:
    - type: 1
      amount: 12
      spawnPercentage: 0
  - EnemyOrientationNorth: 0
    EnemyOrientationEast: 1
    EnemyOrientationSouth: 0
    EnemyOrientationWest: 1
    enemyAmount: 0
    enemyInfo:
    - type: 12
      amount: 12
      spawnPercentage: 0
  - EnemyOrientationNorth: 1
    EnemyOrientationEast: 0
    EnemyOrientationSouth: 1
    EnemyOrientationWest: 1
    enemyAmount: 0
    enemyInfo:
    - type: 2
      amount: 12
      spawnPercentage: 0
  - EnemyOrientationNorth: 0
    EnemyOrientationEast: 1
    EnemyOrientationSouth: 0
    EnemyOrientationWest: 1
    enemyAmount: 0
    enemyInfo:
    - type: 9
      amount: 8
      spawnPercentage: 0
    - type: 7
      amount: 2
      spawnPercentage: 0
    - type: 7
      amount: 2
      spawnPercentage: 0
  - EnemyOrientationNorth: 1
    EnemyOrientationEast: 0
    EnemyOrientationSouth: 1
    EnemyOrientationWest: 1
    enemyAmount: 0
    enemyInfo:
    - type: 3
      amount: 12
      spawnPercentage: 0
  - EnemyOrientationNorth: 0
    EnemyOrientationEast: 1
    EnemyOrientationSouth: 0
    EnemyOrientationWest: 1
    enemyAmount: 0
    enemyInfo:
    - type: 7
      amount: 12
      spawnPercentage: 0
  - EnemyOrientationNorth: 0
    EnemyOrientationEast: 1
    EnemyOrientationSouth: 0
    EnemyOrientationWest: 1
    enemyAmount: 0
    enemyInfo:
    - type: 11
      amount: 12
      spawnPercentage: 0
  insaneWaves:
  - EnemyOrientationNorth: 1
    EnemyOrientationEast: 1
    EnemyOrientationSouth: 1
    EnemyOrientationWest: 1
    enemyAmount: 0
    enemyInfo:
    - type: 1
      amount: 6
      spawnPercentage: 0
    - type: 12
      amount: 6
      spawnPercentage: 0
    - type: 7
      amount: 1
      spawnPercentage: 0
  - EnemyOrientationNorth: 0
    EnemyOrientationEast: 1
    EnemyOrientationSouth: 0
    EnemyOrientationWest: 1
    enemyAmount: 0
    enemyInfo:
    - type: 11
      amount: 12
      spawnPercentage: 0
    - type: 9
      amount: 1
      spawnPercentage: 0
  - EnemyOrientationNorth: 1
    EnemyOrientationEast: 1
    EnemyOrientationSouth: 1
    EnemyOrientationWest: 1
    enemyAmount: 0
    enemyInfo:
    - type: 3
      amount: 9
      spawnPercentage: 0
    - type: 7
      amount: 4
      spawnPercentage: 0
  - EnemyOrientationNorth: 0
    EnemyOrientationEast: 1
    EnemyOrientationSouth: 0
    EnemyOrientationWest: 1
    enemyAmount: 0
    enemyInfo:
    - type: 9
      amount: 10
      spawnPercentage: 0
    - type: 7
      amount: 3
      spawnPercentage: 0
  - EnemyOrientationNorth: 1
    EnemyOrientationEast: 1
    EnemyOrientationSouth: 1
    EnemyOrientationWest: 1
    enemyAmount: 0
    enemyInfo:
    - type: 3
      amount: 6
      spawnPercentage: 0
    - type: 7
      amount: 7
      spawnPercentage: 0
  - EnemyOrientationNorth: 1
    EnemyOrientationEast: 0
    EnemyOrientationSouth: 1
    EnemyOrientationWest: 1
    enemyAmount: 0
    enemyInfo:
    - type: 2
      amount: 13
      spawnPercentage: 0
  - EnemyOrientationNorth: 1
    EnemyOrientationEast: 1
    EnemyOrientationSouth: 1
    EnemyOrientationWest: 1
    enemyAmount: 0
    enemyInfo:
    - type: 1
      amount: 6
      spawnPercentage: 0
    - type: 12
      amount: 6
      spawnPercentage: 0
    - type: 7
      amount: 1
      spawnPercentage: 0
  timeBetweenWaves: 10
  normalGrindCardRarities: []
  hardGrindCardRarities: []
  insaneGrindCardRarities: []
  weaponLvlLimit: -1
