%YAML 1.1
%TAG !u! tag:unity3d.com,2011:
--- !u!114 &11400000
MonoBehaviour:
  m_ObjectHideFlags: 0
  m_PrefabParentObject: {fileID: 0}
  m_PrefabInternal: {fileID: 0}
  m_GameObject: {fileID: 0}
  m_Enabled: 1
  m_EditorHideFlags: 0
  m_Script: {fileID: 11500000, guid: 8e8a1941fbf4b7d49a9227cf3aa789fc, type: 3}
  m_Name: Challenge001_Mission1
  m_EditorClassIdentifier: 
  challengeNameID: CHALLENGE_MISSION1_NAME
  normalChallengeNumber: 001
  hardChallengeNumber: 019
  insaneChallengeNumber: 037
  sceneName: Mission_1
  challengeMap: {fileID: 21300000, guid: e72799478b2fbca4c8444bc10ab91d5b, type: 3}
  challengeType: 0
  normalWaves:
  - EnemyOrientationNorth: 0
    EnemyOrientationEast: 1
    EnemyOrientationSouth: 0
    EnemyOrientationWest: 1
    enemyAmount: 0
    enemyInfo:
    - type: 0
      amount: 1
      spawnPercentage: 0
    - type: 13
      amount: 1
      spawnPercentage: 0
  - EnemyOrientationNorth: 0
    EnemyOrientationEast: 1
    EnemyOrientationSouth: 0
    EnemyOrientationWest: 1
    enemyAmount: 0
    enemyInfo:
    - type: 0
      amount: 1
      spawnPercentage: 0
    - type: 13
      amount: 1
      spawnPercentage: 0
  - EnemyOrientationNorth: 0
    EnemyOrientationEast: 1
    EnemyOrientationSouth: 0
    EnemyOrientationWest: 1
    enemyAmount: 0
    enemyInfo:
    - type: 13
      amount: 1
      spawnPercentage: 0
    - type: 0
      amount: 1
      spawnPercentage: 0
  hardWaves:
  - EnemyOrientationNorth: 0
    EnemyOrientationEast: 1
    EnemyOrientationSouth: 0
    EnemyOrientationWest: 1
    enemyAmount: 0
    enemyInfo:
    - type: 1
      amount: 2
      spawnPercentage: 0
    - type: 13
      amount: 3
      spawnPercentage: 0
  - EnemyOrientationNorth: 0
    EnemyOrientationEast: 1
    EnemyOrientationSouth: 0
    EnemyOrientationWest: 1
    enemyAmount: 0
    enemyInfo:
    - type: 13
      amount: 5
      spawnPercentage: 0
  - EnemyOrientationNorth: 0
    EnemyOrientationEast: 1
    EnemyOrientationSouth: 0
    EnemyOrientationWest: 1
    enemyAmount: 0
    enemyInfo:
    - type: 1
      amount: 3
      spawnPercentage: 0
    - type: 13
      amount: 2
      spawnPercentage: 0
  insaneWaves:
  - EnemyOrientationNorth: 0
    EnemyOrientationEast: 1
    EnemyOrientationSouth: 0
    EnemyOrientationWest: 1
    enemyAmount: 0
    enemyInfo:
    - type: 1
      amount: 5
      spawnPercentage: 0
  - EnemyOrientationNorth: 0
    EnemyOrientationEast: 1
    EnemyOrientationSouth: 0
    EnemyOrientationWest: 1
    enemyAmount: 0
    enemyInfo:
    - type: 13
      amount: 5
      spawnPercentage: 0
  - EnemyOrientationNorth: 0
    EnemyOrientationEast: 1
    EnemyOrientationSouth: 0
    EnemyOrientationWest: 1
    enemyAmount: 0
    enemyInfo:
    - type: 1
      amount: 5
      spawnPercentage: 0
  timeBetweenWaves: 10
  normalGrindCardRarities: []
  hardGrindCardRarities: []
  insaneGrindCardRarities: []
  weaponLvlLimit: -1
