%YAML 1.1
%TAG !u! tag:unity3d.com,2011:
--- !u!114 &11400000
MonoBehaviour:
  m_ObjectHideFlags: 0
  m_PrefabParentObject: {fileID: 0}
  m_PrefabInternal: {fileID: 0}
  m_GameObject: {fileID: 0}
  m_Enabled: 1
  m_EditorHideFlags: 0
  m_Script: {fileID: 11500000, guid: 8e8a1941fbf4b7d49a9227cf3aa789fc, type: 3}
  m_Name: Challenge011_Mission11
  m_EditorClassIdentifier: 
  challengeNameID: CHALLENGE_MISSION11_NAME
  normalChallengeNumber: 009
  hardChallengeNumber: 027
  insaneChallengeNumber: 045
  sceneName: Mission_11
  challengeMap: {fileID: 21300000, guid: 314f58ab15f1c5946817aea79b9d5cce, type: 3}
  challengeType: 0
  normalWaves:
  - EnemyOrientationNorth: 0
    EnemyOrientationEast: 1
    EnemyOrientationSouth: 0
    EnemyOrientationWest: 1
    enemyAmount: 0
    enemyInfo:
    - type: 13
      amount: 3
      spawnPercentage: 0
    - type: 10
      amount: 3
      spawnPercentage: 0
    - type: 11
      amount: 1
      spawnPercentage: 0
  - EnemyOrientationNorth: 0
    EnemyOrientationEast: 1
    EnemyOrientationSouth: 0
    EnemyOrientationWest: 1
    enemyAmount: 0
    enemyInfo:
    - type: 5
      amount: 2
      spawnPercentage: 0
    - type: 2
      amount: 2
      spawnPercentage: 0
    - type: 1
      amount: 2
      spawnPercentage: 0
    - type: 12
      amount: 1
      spawnPercentage: 0
  - EnemyOrientationNorth: 0
    EnemyOrientationEast: 1
    EnemyOrientationSouth: 0
    EnemyOrientationWest: 1
    enemyAmount: 0
    enemyInfo:
    - type: 1
      amount: 3
      spawnPercentage: 0
    - type: 11
      amount: 2
      spawnPercentage: 0
    - type: 13
      amount: 2
      spawnPercentage: 0
  - EnemyOrientationNorth: 0
    EnemyOrientationEast: 1
    EnemyOrientationSouth: 0
    EnemyOrientationWest: 1
    enemyAmount: 0
    enemyInfo:
    - type: 12
      amount: 5
      spawnPercentage: 0
    - type: 10
      amount: 2
      spawnPercentage: 0
  - EnemyOrientationNorth: 0
    EnemyOrientationEast: 1
    EnemyOrientationSouth: 0
    EnemyOrientationWest: 1
    enemyAmount: 0
    enemyInfo:
    - type: 2
      amount: 3
      spawnPercentage: 0
    - type: 5
      amount: 3
      spawnPercentage: 0
    - type: 11
      amount: 1
      spawnPercentage: 0
  hardWaves:
  - EnemyOrientationNorth: 0
    EnemyOrientationEast: 1
    EnemyOrientationSouth: 0
    EnemyOrientationWest: 1
    enemyAmount: 0
    enemyInfo:
    - type: 13
      amount: 5
      spawnPercentage: 0
    - type: 5
      amount: 3
      spawnPercentage: 0
  - EnemyOrientationNorth: 0
    EnemyOrientationEast: 1
    EnemyOrientationSouth: 0
    EnemyOrientationWest: 1
    enemyAmount: 0
    enemyInfo:
    - type: 11
      amount: 5
      spawnPercentage: 0
    - type: 5
      amount: 3
      spawnPercentage: 0
  - EnemyOrientationNorth: 0
    EnemyOrientationEast: 1
    EnemyOrientationSouth: 0
    EnemyOrientationWest: 1
    enemyAmount: 0
    enemyInfo:
    - type: 1
      amount: 5
      spawnPercentage: 0
    - type: 12
      amount: 3
      spawnPercentage: 0
  - EnemyOrientationNorth: 0
    EnemyOrientationEast: 1
    EnemyOrientationSouth: 0
    EnemyOrientationWest: 1
    enemyAmount: 0
    enemyInfo:
    - type: 10
      amount: 5
      spawnPercentage: 0
    - type: 12
      amount: 3
      spawnPercentage: 0
  - EnemyOrientationNorth: 0
    EnemyOrientationEast: 1
    EnemyOrientationSouth: 0
    EnemyOrientationWest: 1
    enemyAmount: 0
    enemyInfo:
    - type: 2
      amount: 5
      spawnPercentage: 0
    - type: 12
      amount: 3
      spawnPercentage: 0
  insaneWaves:
  - EnemyOrientationNorth: 0
    EnemyOrientationEast: 1
    EnemyOrientationSouth: 0
    EnemyOrientationWest: 1
    enemyAmount: 0
    enemyInfo:
    - type: 13
      amount: 5
      spawnPercentage: 0
    - type: 5
      amount: 2
      spawnPercentage: 0
    - type: 12
      amount: 2
      spawnPercentage: 0
  - EnemyOrientationNorth: 0
    EnemyOrientationEast: 1
    EnemyOrientationSouth: 0
    EnemyOrientationWest: 1
    enemyAmount: 0
    enemyInfo:
    - type: 10
      amount: 5
      spawnPercentage: 0
    - type: 5
      amount: 2
      spawnPercentage: 0
    - type: 12
      amount: 2
      spawnPercentage: 0
  - EnemyOrientationNorth: 0
    EnemyOrientationEast: 1
    EnemyOrientationSouth: 0
    EnemyOrientationWest: 1
    enemyAmount: 0
    enemyInfo:
    - type: 11
      amount: 7
      spawnPercentage: 0
    - type: 12
      amount: 2
      spawnPercentage: 0
  - EnemyOrientationNorth: 0
    EnemyOrientationEast: 1
    EnemyOrientationSouth: 0
    EnemyOrientationWest: 1
    enemyAmount: 0
    enemyInfo:
    - type: 1
      amount: 7
      spawnPercentage: 0
    - type: 12
      amount: 2
      spawnPercentage: 0
  - EnemyOrientationNorth: 0
    EnemyOrientationEast: 1
    EnemyOrientationSouth: 0
    EnemyOrientationWest: 1
    enemyAmount: 0
    enemyInfo:
    - type: 2
      amount: 7
      spawnPercentage: 0
    - type: 12
      amount: 2
      spawnPercentage: 0
  timeBetweenWaves: 10
  normalGrindCardRarities: []
  hardGrindCardRarities: []
  insaneGrindCardRarities: []
  weaponLvlLimit: -1
