%YAML 1.1
%TAG !u! tag:unity3d.com,2011:
--- !u!114 &11400000
MonoBehaviour:
  m_ObjectHideFlags: 0
  m_PrefabParentObject: {fileID: 0}
  m_PrefabInternal: {fileID: 0}
  m_GameObject: {fileID: 0}
  m_Enabled: 1
  m_EditorHideFlags: 0
  m_Script: {fileID: 11500000, guid: bc47af1e06cd7184899ae6caed251e12, type: 3}
  m_Name: RewardTutorialCard1
  m_EditorClassIdentifier: 
  rewardType: 0
  upgradeCardAmount: 1
  consumableAmount: 0
  specificWeapons: 01000000
  specificWeaponUpgrade: 4
  currencyAmount: 0
